{"failedCount":1,"prefixedPath":"src\/test\/java\/tests\/Header.feature","packageQualifiedName":"src.test.java.tests.Header","loopIndex":-1,"relativePath":"src\/test\/java\/tests\/Header.feature","scenarioResults":[{"sectionIndex":0,"stepResults":[{"result":{"nanos":51069800,"millis":51.0698,"status":"passed"},"step":{"background":true,"line":4,"prefix":"*","index":0,"text":"url 'https:\/\/reqres.in\/api\/users'"}},{"result":{"nanos":576800,"millis":0.5768,"status":"passed"},"step":{"line":8,"prefix":"Given","index":0,"text":"header Host = 'reqres.in'"}},{"result":{"nanos":352500,"millis":0.3525,"status":"passed"},"step":{"line":9,"prefix":"And","index":1,"text":"header Connection = 'Keep-Alive'"}},{"result":{"nanos":293600,"millis":0.2936,"status":"passed"},"step":{"line":10,"prefix":"And","index":2,"text":"header User-Agent = 'Apache-HttpClient\/4.5.13'"}},{"result":{"nanos":779104300,"millis":779.1043,"status":"passed"},"step":{"line":11,"prefix":"When","index":3,"text":"method GET"},"stepLog":"20:25:56.900 request:\n1 > GET https:\/\/reqres.in\/api\/users\n1 > Host: reqres.in\n1 > Connection: Keep-Alive\n1 > User-Agent: Apache-HttpClient\/4.5.13\n1 > Accept-Encoding: gzip,deflate\n\n\n20:25:57.282 response time in milliseconds: 380\n1 < 200\n1 < Date: Fri, 30 Sep 2022 14:51:40 GMT\n1 < Content-Type: application\/json; charset=utf-8\n1 < Transfer-Encoding: chunked\n1 < Connection: keep-alive\n1 < X-Powered-By: Express\n1 < Access-Control-Allow-Origin: *\n1 < Etag: W\/\"3e4-2RLXvr5wTg9YQ6aH95CkYoFNuO8\"\n1 < Via: 1.1 vegur\n1 < Cache-Control: max-age=14400\n1 < CF-Cache-Status: HIT\n1 < Age: 4224\n1 < Report-To: {\"endpoints\":[{\"url\":\"https:\\\/\\\/a.nel.cloudflare.com\\\/report\\\/v3?s=Paj1vtTD%2Bq1CFawCNKTj2%2BmaM8Vk9jOj0TuI%2F%2B9RpbocUtVW9AlkBmeqoWX4fGrb%2BWWH9aG0WD8Ri9SXAW2LDliTe6bk7%2FnKXyWPyG6P2Jd7j4smOKqbsn4%2FaA%3D%3D\"}],\"group\":\"cf-nel\",\"max_age\":604800}\n1 < NEL: {\"success_fraction\":0,\"report_to\":\"cf-nel\",\"max_age\":604800}\n1 < Vary: Accept-Encoding\n1 < Server: cloudflare\n1 < CF-RAY: 752dc7297d2f320b-BOM\n{\"page\":1,\"per_page\":6,\"total\":12,\"total_pages\":2,\"data\":[{\"id\":1,\"email\":\"george.bluth@reqres.in\",\"first_name\":\"George\",\"last_name\":\"Bluth\",\"avatar\":\"https:\/\/reqres.in\/img\/faces\/1-image.jpg\"},{\"id\":2,\"email\":\"janet.weaver@reqres.in\",\"first_name\":\"Janet\",\"last_name\":\"Weaver\",\"avatar\":\"https:\/\/reqres.in\/img\/faces\/2-image.jpg\"},{\"id\":3,\"email\":\"emma.wong@reqres.in\",\"first_name\":\"Emma\",\"last_name\":\"Wong\",\"avatar\":\"https:\/\/reqres.in\/img\/faces\/3-image.jpg\"},{\"id\":4,\"email\":\"eve.holt@reqres.in\",\"first_name\":\"Eve\",\"last_name\":\"Holt\",\"avatar\":\"https:\/\/reqres.in\/img\/faces\/4-image.jpg\"},{\"id\":5,\"email\":\"charles.morris@reqres.in\",\"first_name\":\"Charles\",\"last_name\":\"Morris\",\"avatar\":\"https:\/\/reqres.in\/img\/faces\/5-image.jpg\"},{\"id\":6,\"email\":\"tracey.ramos@reqres.in\",\"first_name\":\"Tracey\",\"last_name\":\"Ramos\",\"avatar\":\"https:\/\/reqres.in\/img\/faces\/6-image.jpg\"}],\"support\":{\"url\":\"https:\/\/reqres.in\/#support-heading\",\"text\":\"To keep ReqRes free, contributions towards server costs are appreciated!\"}}\n\n"},{"result":{"nanos":27000,"millis":0.027,"status":"passed"},"step":{"line":12,"prefix":"Then","index":4,"text":"status 200"}},{"result":{"nanos":71290500,"millis":71.2905,"status":"passed"},"step":{"line":13,"prefix":"*","index":5,"text":"print response"},"stepLog":"20:25:57.382 [print] {\n  \"page\": 1,\n  \"per_page\": 6,\n  \"total\": 12,\n  \"total_pages\": 2,\n  \"data\": [\n    {\n      \"id\": 1,\n      \"email\": \"george.bluth@reqres.in\",\n      \"first_name\": \"George\",\n      \"last_name\": \"Bluth\",\n      \"avatar\": \"https:\/\/reqres.in\/img\/faces\/1-image.jpg\"\n    },\n    {\n      \"id\": 2,\n      \"email\": \"janet.weaver@reqres.in\",\n      \"first_name\": \"Janet\",\n      \"last_name\": \"Weaver\",\n      \"avatar\": \"https:\/\/reqres.in\/img\/faces\/2-image.jpg\"\n    },\n    {\n      \"id\": 3,\n      \"email\": \"emma.wong@reqres.in\",\n      \"first_name\": \"Emma\",\n      \"last_name\": \"Wong\",\n      \"avatar\": \"https:\/\/reqres.in\/img\/faces\/3-image.jpg\"\n    },\n    {\n      \"id\": 4,\n      \"email\": \"eve.holt@reqres.in\",\n      \"first_name\": \"Eve\",\n      \"last_name\": \"Holt\",\n      \"avatar\": \"https:\/\/reqres.in\/img\/faces\/4-image.jpg\"\n    },\n    {\n      \"id\": 5,\n      \"email\": \"charles.morris@reqres.in\",\n      \"first_name\": \"Charles\",\n      \"last_name\": \"Morris\",\n      \"avatar\": \"https:\/\/reqres.in\/img\/faces\/5-image.jpg\"\n    },\n    {\n      \"id\": 6,\n      \"email\": \"tracey.ramos@reqres.in\",\n      \"first_name\": \"Tracey\",\n      \"last_name\": \"Ramos\",\n      \"avatar\": \"https:\/\/reqres.in\/img\/faces\/6-image.jpg\"\n    }\n  ],\n  \"support\": {\n    \"url\": \"https:\/\/reqres.in\/#support-heading\",\n    \"text\": \"To keep ReqRes free, contributions towards server costs are appreciated!\"\n  }\n}\n \n"}],"executorName":"main","line":7,"name":"Passing header individuallly","description":"","durationMillis":902.7145,"startTime":1664549756469,"failed":false,"refId":"[1:7]","endTime":1664549757383,"exampleIndex":-1},{"sectionIndex":1,"stepResults":[{"result":{"nanos":441100,"millis":0.4411,"status":"passed"},"step":{"background":true,"line":4,"prefix":"*","index":0,"text":"url 'https:\/\/reqres.in\/api\/users'"}},{"result":{"nanos":16572100,"millis":16.5721,"status":"passed"},"step":{"line":16,"prefix":"*","index":0,"text":"configure headers =  {header Host:'reqres.in',header Connection:'Keep-Alive',User-Agent:'Apache-HttpClient\/4.5.13'}"}},{"result":{"nanos":8950400,"errorMessage":"js failed:\n>>>>\n01: request_headers\n<<<<\norg.graalvm.polyglot.PolyglotException: ReferenceError: \"request_headers\" is not defined\n- <js>.:program(Unnamed:1)\n\nsrc\/test\/java\/tests\/Header.feature:17","millis":8.9504,"status":"failed"},"step":{"line":17,"prefix":"Given","index":1,"text":"headers request_headers"},"stepLog":"20:25:57.417 src\/test\/java\/tests\/Header.feature:17\nGiven headers request_headers\njs failed:\n>>>>\n01: request_headers\n<<<<\norg.graalvm.polyglot.PolyglotException: ReferenceError: \"request_headers\" is not defined\n- <js>.:program(Unnamed:1)\n\nsrc\/test\/java\/tests\/Header.feature:17\n"},{"result":{"nanos":0,"millis":0.0,"status":"skipped"},"step":{"line":18,"prefix":"When","index":2,"text":"method GET"}},{"result":{"nanos":0,"millis":0.0,"status":"skipped"},"step":{"line":19,"prefix":"Then","index":3,"text":"status 200"}},{"result":{"nanos":0,"millis":0.0,"status":"skipped"},"step":{"line":20,"prefix":"*","index":4,"text":"print response"}}],"line":15,"description":"","durationMillis":25.9636,"failed":true,"error":"js failed:\n>>>>\n01: request_headers\n<<<<\norg.graalvm.polyglot.PolyglotException: ReferenceError: \"request_headers\" is not defined\n- <js>.:program(Unnamed:1)\n\nsrc\/test\/java\/tests\/Header.feature:17","executorName":"main","name":"Passing header with configure keyword","startTime":1664549757390,"refId":"[2:15]","endTime":1664549757417,"exampleIndex":-1}],"callDepth":0,"name":"Passing request headers in different ways","description":"","resultDate":"2022-09-30 08:25:57 pm","durationMillis":928.6781,"passedCount":1}