{"failedCount":0,"prefixedPath":"src\/test\/java\/tests\/N_GET.feature","packageQualifiedName":"src.test.java.tests.N_GET","loopIndex":-1,"relativePath":"src\/test\/java\/tests\/N_GET.feature","scenarioResults":[{"sectionIndex":0,"stepResults":[{"result":{"nanos":231811700,"millis":231.8117,"status":"passed"},"step":{"line":7,"prefix":"Given","index":0,"text":"url 'https:\/\/reqres.in\/api\/users'"}},{"result":{"nanos":3726100,"millis":3.7261,"status":"passed"},"step":{"line":8,"prefix":"And","index":1,"text":"path '2'"}},{"result":{"nanos":1502433300,"millis":1502.4333,"status":"passed"},"step":{"line":9,"prefix":"When","index":2,"text":"method GET"},"stepLog":"12:23:25.186 request:\n1 > GET https:\/\/reqres.in\/api\/users\/2\n1 > Host: reqres.in\n1 > Connection: Keep-Alive\n1 > User-Agent: Apache-HttpClient\/4.5.13 (Java\/17.0.1)\n1 > Accept-Encoding: gzip,deflate\n\n\n12:23:25.805 response time in milliseconds: 613\n1 < 200\n1 < Date: Mon, 03 Oct 2022 06:49:07 GMT\n1 < Content-Type: application\/json; charset=utf-8\n1 < Transfer-Encoding: chunked\n1 < Connection: keep-alive\n1 < X-Powered-By: Express\n1 < Access-Control-Allow-Origin: *\n1 < Etag: W\/\"118-pbdwwFo9SKNhD3Lx5iHJyngpq00\"\n1 < Via: 1.1 vegur\n1 < Cache-Control: max-age=14400\n1 < CF-Cache-Status: HIT\n1 < Age: 461\n1 < Report-To: {\"endpoints\":[{\"url\":\"https:\\\/\\\/a.nel.cloudflare.com\\\/report\\\/v3?s=nJ0jqy2K2V7fo%2B6dyqw81M25q7m%2FJ7rCFprV4ZzcYYZRy0FknNV4A18Qo73ysD19A0D8sDktn%2B%2FBlSRbhwIwpxfEXwoVsShTmZ1ap1C36vZx89zew6sm4fqN0g%3D%3D\"}],\"group\":\"cf-nel\",\"max_age\":604800}\n1 < NEL: {\"success_fraction\":0,\"report_to\":\"cf-nel\",\"max_age\":604800}\n1 < Vary: Accept-Encoding\n1 < Server: cloudflare\n1 < CF-RAY: 7543bc6b9d3b850d-BOM\n{\"data\":{\"id\":2,\"email\":\"janet.weaver@reqres.in\",\"first_name\":\"Janet\",\"last_name\":\"Weaver\",\"avatar\":\"https:\/\/reqres.in\/img\/faces\/2-image.jpg\"},\"support\":{\"url\":\"https:\/\/reqres.in\/#support-heading\",\"text\":\"To keep ReqRes free, contributions towards server costs are appreciated!\"}}\n\n"},{"result":{"nanos":42900,"millis":0.0429,"status":"passed"},"step":{"line":10,"prefix":"Then","index":3,"text":"status 200"}},{"result":{"nanos":141397200,"millis":141.3972,"status":"passed"},"step":{"line":11,"prefix":"*","index":4,"text":"print response"},"stepLog":"12:23:26.034 [print] {\n  \"data\": {\n    \"id\": 2,\n    \"email\": \"janet.weaver@reqres.in\",\n    \"first_name\": \"Janet\",\n    \"last_name\": \"Weaver\",\n    \"avatar\": \"https:\/\/reqres.in\/img\/faces\/2-image.jpg\"\n  },\n  \"support\": {\n    \"url\": \"https:\/\/reqres.in\/#support-heading\",\n    \"text\": \"To keep ReqRes free, contributions towards server costs are appreciated!\"\n  }\n}\n \n"},{"result":{"nanos":23345100,"millis":23.3451,"status":"passed"},"step":{"line":12,"prefix":"*","index":5,"text":"def jsonResponse = response"}},{"result":{"nanos":2190500,"millis":2.1905,"status":"passed"},"step":{"line":13,"prefix":"*","index":6,"text":"def actualName = jsonResponse.data.first_name"}},{"result":{"nanos":1762100,"millis":1.7621,"status":"passed"},"step":{"line":14,"prefix":"*","index":7,"text":"print actualName"},"stepLog":"12:23:26.063 [print] Janet \n"},{"result":{"nanos":20591000,"millis":20.591,"status":"passed"},"step":{"line":15,"prefix":"*","index":8,"text":"match actualName == jsonResponse.data.first_name"}},{"result":{"nanos":18373200,"millis":18.3732,"status":"passed"},"step":{"line":16,"prefix":"*","index":9,"text":"print \"Actual Name \"+actualName+\"Matched with Response Name \"+jsonResponse.data.first_name"},"stepLog":"12:23:26.102 [print] Actual Name JanetMatched with Response Name Janet \n"}],"executorName":"main","line":6,"name":"GET user details with API","description":"","durationMillis":1945.6731,"startTime":1664780004116,"failed":false,"refId":"[1:6]","endTime":1664780006102,"exampleIndex":-1},{"sectionIndex":1,"stepResults":[{"result":{"nanos":22657000,"millis":22.657,"status":"passed"},"step":{"line":19,"prefix":"*","index":0,"text":"def query = {id:'7'}"}},{"result":{"nanos":437300,"millis":0.4373,"status":"passed"},"step":{"line":20,"prefix":"Given","index":1,"text":"url 'https:\/\/reqres.in\/api\/users'"}},{"result":{"nanos":1350300,"millis":1.3503,"status":"passed"},"step":{"line":21,"prefix":"And","index":2,"text":"params query"}},{"result":{"nanos":460949600,"millis":460.9496,"status":"passed"},"step":{"line":22,"prefix":"When","index":3,"text":"method GET"},"stepLog":"12:23:26.136 request:\n1 > GET https:\/\/reqres.in\/api\/users?id=7\n1 > Host: reqres.in\n1 > Connection: Keep-Alive\n1 > User-Agent: Apache-HttpClient\/4.5.13 (Java\/17.0.1)\n1 > Accept-Encoding: gzip,deflate\n\n\n12:23:26.593 response time in milliseconds: 457\n1 < 200\n1 < Date: Mon, 03 Oct 2022 06:49:07 GMT\n1 < Content-Type: application\/json; charset=utf-8\n1 < Transfer-Encoding: chunked\n1 < Connection: keep-alive\n1 < X-Powered-By: Express\n1 < Access-Control-Allow-Origin: *\n1 < Etag: W\/\"11c-Esb3aX7LcoAMUKcF3i6bvWwxqls\"\n1 < Via: 1.1 vegur\n1 < Cache-Control: max-age=14400\n1 < CF-Cache-Status: MISS\n1 < Report-To: {\"endpoints\":[{\"url\":\"https:\\\/\\\/a.nel.cloudflare.com\\\/report\\\/v3?s=SjgMXlfULIHCrA5Dz%2FIsEZ6nwtGSjOa%2BeS555uywkpQMA2SYbkPhM80crZXcNbtMi1dlHsiFdAxa49bLR5Pwz5UhYlwEu%2FMfP3ke%2Fm9AF2zu8waUwRCi8VgGOw%3D%3D\"}],\"group\":\"cf-nel\",\"max_age\":604800}\n1 < NEL: {\"success_fraction\":0,\"report_to\":\"cf-nel\",\"max_age\":604800}\n1 < Vary: Accept-Encoding\n1 < Server: cloudflare\n1 < CF-RAY: 7543bc6e5e038565-BOM\n{\"data\":{\"id\":7,\"email\":\"michael.lawson@reqres.in\",\"first_name\":\"Michael\",\"last_name\":\"Lawson\",\"avatar\":\"https:\/\/reqres.in\/img\/faces\/7-image.jpg\"},\"support\":{\"url\":\"https:\/\/reqres.in\/#support-heading\",\"text\":\"To keep ReqRes free, contributions towards server costs are appreciated!\"}}\n\n"},{"result":{"nanos":21700,"millis":0.0217,"status":"passed"},"step":{"line":23,"prefix":"Then","index":4,"text":"status 200"}},{"result":{"nanos":1653000,"millis":1.653,"status":"passed"},"step":{"line":24,"prefix":"*","index":5,"text":"print response"},"stepLog":"12:23:26.597 [print] {\n  \"data\": {\n    \"id\": 7,\n    \"email\": \"michael.lawson@reqres.in\",\n    \"first_name\": \"Michael\",\n    \"last_name\": \"Lawson\",\n    \"avatar\": \"https:\/\/reqres.in\/img\/faces\/7-image.jpg\"\n  },\n  \"support\": {\n    \"url\": \"https:\/\/reqres.in\/#support-heading\",\n    \"text\": \"To keep ReqRes free, contributions towards server costs are appreciated!\"\n  }\n}\n \n"}],"executorName":"main","line":18,"name":"Get users with specific first name","description":"","durationMillis":487.0689,"startTime":1664780006109,"failed":false,"refId":"[2:18]","endTime":1664780006598,"exampleIndex":-1},{"sectionIndex":2,"stepResults":[{"result":{"nanos":697200,"millis":0.6972,"status":"passed"},"step":{"line":27,"prefix":"*","index":0,"text":"def query = {id:'1' , avatar:'https:\/\/reqres.in\/img\/faces\/1-image.jpg'}"}},{"result":{"nanos":529000,"millis":0.529,"status":"passed"},"step":{"line":28,"prefix":"Given","index":1,"text":"url 'https:\/\/reqres.in\/api\/users'"}},{"result":{"nanos":669400,"millis":0.6694,"status":"passed"},"step":{"line":29,"prefix":"And","index":2,"text":"params query"}},{"result":{"nanos":481151600,"millis":481.1516,"status":"passed"},"step":{"line":30,"prefix":"When","index":3,"text":"method GET"},"stepLog":"12:23:26.614 request:\n1 > GET https:\/\/reqres.in\/api\/users?id=1&avatar=https%3A%2F%2Freqres.in%2Fimg%2Ffaces%2F1-image.jpg\n1 > Host: reqres.in\n1 > Connection: Keep-Alive\n1 > User-Agent: Apache-HttpClient\/4.5.13 (Java\/17.0.1)\n1 > Accept-Encoding: gzip,deflate\n\n\n12:23:27.089 response time in milliseconds: 475\n1 < 200\n1 < Date: Mon, 03 Oct 2022 06:49:08 GMT\n1 < Content-Type: application\/json; charset=utf-8\n1 < Transfer-Encoding: chunked\n1 < Connection: keep-alive\n1 < X-Powered-By: Express\n1 < Access-Control-Allow-Origin: *\n1 < Etag: W\/\"118-P3iKcVpIgCj9HqYeOOrGLX8qJVc\"\n1 < Via: 1.1 vegur\n1 < Cache-Control: max-age=14400\n1 < CF-Cache-Status: MISS\n1 < Report-To: {\"endpoints\":[{\"url\":\"https:\\\/\\\/a.nel.cloudflare.com\\\/report\\\/v3?s=mqfLAJo3JA8JyzQ06JeYpO9ucjBwW6j7tgJAlBMHQRjbtWrMnf7B9lehL2oxXRgF0e1Bsh4be1ZkCp2X0SQmDCxQQTGv3F6yn6BDa%2FX%2FsmRjtZ%2BZf8iKyUAEwg%3D%3D\"}],\"group\":\"cf-nel\",\"max_age\":604800}\n1 < NEL: {\"success_fraction\":0,\"report_to\":\"cf-nel\",\"max_age\":604800}\n1 < Vary: Accept-Encoding\n1 < Server: cloudflare\n1 < CF-RAY: 7543bc716dd68596-BOM\n{\"data\":{\"id\":1,\"email\":\"george.bluth@reqres.in\",\"first_name\":\"George\",\"last_name\":\"Bluth\",\"avatar\":\"https:\/\/reqres.in\/img\/faces\/1-image.jpg\"},\"support\":{\"url\":\"https:\/\/reqres.in\/#support-heading\",\"text\":\"To keep ReqRes free, contributions towards server costs are appreciated!\"}}\n\n"},{"result":{"nanos":27100,"millis":0.0271,"status":"passed"},"step":{"line":31,"prefix":"Then","index":4,"text":"status 200"}},{"result":{"nanos":1629100,"millis":1.6291,"status":"passed"},"step":{"line":32,"prefix":"*","index":5,"text":"print response"},"stepLog":"12:23:27.094 [print] {\n  \"data\": {\n    \"id\": 1,\n    \"email\": \"george.bluth@reqres.in\",\n    \"first_name\": \"George\",\n    \"last_name\": \"Bluth\",\n    \"avatar\": \"https:\/\/reqres.in\/img\/faces\/1-image.jpg\"\n  },\n  \"support\": {\n    \"url\": \"https:\/\/reqres.in\/#support-heading\",\n    \"text\": \"To keep ReqRes free, contributions towards server costs are appreciated!\"\n  }\n}\n \n"}],"executorName":"main","line":26,"name":"Get users with specific multiple query parameter","description":"","durationMillis":484.7034,"startTime":1664780006608,"failed":false,"refId":"[3:26]","endTime":1664780007095,"exampleIndex":-1},{"sectionIndex":3,"stepResults":[{"result":{"nanos":640000,"millis":0.64,"status":"passed"},"step":{"line":35,"prefix":"*","index":0,"text":"def query = {avatar:'https:\/\/reqres.in\/img\/faces\/1-image.jpg'}"}},{"result":{"nanos":463500,"millis":0.4635,"status":"passed"},"step":{"line":36,"prefix":"Given","index":1,"text":"url 'https:\/\/reqres.in\/api\/users'"}},{"result":{"nanos":383400,"millis":0.3834,"status":"passed"},"step":{"line":37,"prefix":"And","index":2,"text":"params query"}},{"result":{"nanos":522825800,"millis":522.8258,"status":"passed"},"step":{"line":38,"prefix":"When","index":3,"text":"method GET"},"stepLog":"12:23:27.114 request:\n1 > GET https:\/\/reqres.in\/api\/users?avatar=https%3A%2F%2Freqres.in%2Fimg%2Ffaces%2F1-image.jpg\n1 > Host: reqres.in\n1 > Connection: Keep-Alive\n1 > User-Agent: Apache-HttpClient\/4.5.13 (Java\/17.0.1)\n1 > Accept-Encoding: gzip,deflate\n\n\n12:23:27.628 response time in milliseconds: 513\n1 < 200\n1 < Date: Mon, 03 Oct 2022 06:49:08 GMT\n1 < Content-Type: application\/json; charset=utf-8\n1 < Transfer-Encoding: chunked\n1 < Connection: keep-alive\n1 < X-Powered-By: Express\n1 < Access-Control-Allow-Origin: *\n1 < Etag: W\/\"3e4-2RLXvr5wTg9YQ6aH95CkYoFNuO8\"\n1 < Via: 1.1 vegur\n1 < Cache-Control: max-age=14400\n1 < CF-Cache-Status: MISS\n1 < Report-To: {\"endpoints\":[{\"url\":\"https:\\\/\\\/a.nel.cloudflare.com\\\/report\\\/v3?s=hKdRrn9cWR9NCnkuMn9EBgcjVg2mC%2BH0h2ir2cl0yhtA2QaUsm0aEL7AsVTFGIfb6v%2FE6jrH%2F3Y7Pwyk1GXEu8KYw%2F28CWC45d4xFb%2BopaEhO1E2L050jpWHSQ%3D%3D\"}],\"group\":\"cf-nel\",\"max_age\":604800}\n1 < NEL: {\"success_fraction\":0,\"report_to\":\"cf-nel\",\"max_age\":604800}\n1 < Vary: Accept-Encoding\n1 < Server: cloudflare\n1 < CF-RAY: 7543bc74ceda84d7-BOM\n{\"page\":1,\"per_page\":6,\"total\":12,\"total_pages\":2,\"data\":[{\"id\":1,\"email\":\"george.bluth@reqres.in\",\"first_name\":\"George\",\"last_name\":\"Bluth\",\"avatar\":\"https:\/\/reqres.in\/img\/faces\/1-image.jpg\"},{\"id\":2,\"email\":\"janet.weaver@reqres.in\",\"first_name\":\"Janet\",\"last_name\":\"Weaver\",\"avatar\":\"https:\/\/reqres.in\/img\/faces\/2-image.jpg\"},{\"id\":3,\"email\":\"emma.wong@reqres.in\",\"first_name\":\"Emma\",\"last_name\":\"Wong\",\"avatar\":\"https:\/\/reqres.in\/img\/faces\/3-image.jpg\"},{\"id\":4,\"email\":\"eve.holt@reqres.in\",\"first_name\":\"Eve\",\"last_name\":\"Holt\",\"avatar\":\"https:\/\/reqres.in\/img\/faces\/4-image.jpg\"},{\"id\":5,\"email\":\"charles.morris@reqres.in\",\"first_name\":\"Charles\",\"last_name\":\"Morris\",\"avatar\":\"https:\/\/reqres.in\/img\/faces\/5-image.jpg\"},{\"id\":6,\"email\":\"tracey.ramos@reqres.in\",\"first_name\":\"Tracey\",\"last_name\":\"Ramos\",\"avatar\":\"https:\/\/reqres.in\/img\/faces\/6-image.jpg\"}],\"support\":{\"url\":\"https:\/\/reqres.in\/#support-heading\",\"text\":\"To keep ReqRes free, contributions towards server costs are appreciated!\"}}\n\n"},{"result":{"nanos":44600,"millis":0.0446,"status":"passed"},"step":{"line":39,"prefix":"Then","index":4,"text":"status 200"}},{"result":{"nanos":1310400,"millis":1.3104,"status":"passed"},"step":{"line":40,"prefix":"*","index":5,"text":"def jsonResponse = response"}},{"result":{"nanos":24436200,"millis":24.4362,"status":"passed"},"step":{"line":41,"prefix":"*","index":6,"text":"def totalCount = jsonResponse.data.length"}},{"result":{"nanos":7398400,"millis":7.3984,"status":"passed"},"step":{"line":42,"prefix":"*","index":7,"text":"print response"},"stepLog":"12:23:27.666 [print] {\n  \"page\": 1,\n  \"per_page\": 6,\n  \"total\": 12,\n  \"total_pages\": 2,\n  \"data\": [\n    {\n      \"id\": 1,\n      \"email\": \"george.bluth@reqres.in\",\n      \"first_name\": \"George\",\n      \"last_name\": \"Bluth\",\n      \"avatar\": \"https:\/\/reqres.in\/img\/faces\/1-image.jpg\"\n    },\n    {\n      \"id\": 2,\n      \"email\": \"janet.weaver@reqres.in\",\n      \"first_name\": \"Janet\",\n      \"last_name\": \"Weaver\",\n      \"avatar\": \"https:\/\/reqres.in\/img\/faces\/2-image.jpg\"\n    },\n    {\n      \"id\": 3,\n      \"email\": \"emma.wong@reqres.in\",\n      \"first_name\": \"Emma\",\n      \"last_name\": \"Wong\",\n      \"avatar\": \"https:\/\/reqres.in\/img\/faces\/3-image.jpg\"\n    },\n    {\n      \"id\": 4,\n      \"email\": \"eve.holt@reqres.in\",\n      \"first_name\": \"Eve\",\n      \"last_name\": \"Holt\",\n      \"avatar\": \"https:\/\/reqres.in\/img\/faces\/4-image.jpg\"\n    },\n    {\n      \"id\": 5,\n      \"email\": \"charles.morris@reqres.in\",\n      \"first_name\": \"Charles\",\n      \"last_name\": \"Morris\",\n      \"avatar\": \"https:\/\/reqres.in\/img\/faces\/5-image.jpg\"\n    },\n    {\n      \"id\": 6,\n      \"email\": \"tracey.ramos@reqres.in\",\n      \"first_name\": \"Tracey\",\n      \"last_name\": \"Ramos\",\n      \"avatar\": \"https:\/\/reqres.in\/img\/faces\/6-image.jpg\"\n    }\n  ],\n  \"support\": {\n    \"url\": \"https:\/\/reqres.in\/#support-heading\",\n    \"text\": \"To keep ReqRes free, contributions towards server costs are appreciated!\"\n  }\n}\n \n"},{"result":{"nanos":5354000,"millis":5.354,"status":"passed"},"step":{"line":43,"prefix":"*","index":8,"text":"print totalCount"},"stepLog":"12:23:27.671 [print] 6 \n"},{"result":{"nanos":3616600,"millis":3.6166,"status":"passed"},"step":{"line":44,"prefix":"*","index":9,"text":"match totalCount == jsonResponse.data.length"}}],"executorName":"main","line":34,"name":"Get users count with avatar as query","description":"","durationMillis":566.4729,"startTime":1664780007107,"failed":false,"refId":"[4:34]","endTime":1664780007676,"exampleIndex":-1}],"callDepth":0,"name":"GET API TEST NAVEEN (Simple and with Query Param","description":"","resultDate":"2022-10-03 12:23:27 pm","durationMillis":3483.9183,"passedCount":4}