{"failedCount":1,"prefixedPath":"src\/test\/java\/tests\/Header.feature","packageQualifiedName":"src.test.java.tests.Header","loopIndex":-1,"relativePath":"src\/test\/java\/tests\/Header.feature","scenarioResults":[{"sectionIndex":0,"stepResults":[{"result":{"nanos":64874400,"millis":64.8744,"status":"passed"},"step":{"background":true,"line":4,"prefix":"*","index":0,"text":"url 'https:\/\/reqres.in\/api\/users'"}},{"result":{"nanos":604100,"millis":0.6041,"status":"passed"},"step":{"line":7,"prefix":"Given","index":0,"text":"header Host = 'reqres.in'"}},{"result":{"nanos":438100,"millis":0.4381,"status":"passed"},"step":{"line":8,"prefix":"And","index":1,"text":"header Connection = 'Keep-Alive'"}},{"result":{"nanos":430600,"millis":0.4306,"status":"passed"},"step":{"line":9,"prefix":"And","index":2,"text":"header User-Agent = 'Apache-HttpClient\/4.5.13'"}},{"result":{"nanos":839809100,"millis":839.8091,"status":"passed"},"step":{"line":10,"prefix":"When","index":3,"text":"method GET"},"stepLog":"19:59:12.674 request:\n1 > GET https:\/\/reqres.in\/api\/users\n1 > Host: reqres.in\n1 > Connection: Keep-Alive\n1 > User-Agent: Apache-HttpClient\/4.5.13\n1 > Accept-Encoding: gzip,deflate\n\n\n19:59:13.111 response time in milliseconds: 432\n1 < 200\n1 < Date: Fri, 30 Sep 2022 14:24:56 GMT\n1 < Content-Type: application\/json; charset=utf-8\n1 < Transfer-Encoding: chunked\n1 < Connection: keep-alive\n1 < X-Powered-By: Express\n1 < Access-Control-Allow-Origin: *\n1 < Etag: W\/\"3e4-2RLXvr5wTg9YQ6aH95CkYoFNuO8\"\n1 < Via: 1.1 vegur\n1 < Cache-Control: max-age=14400\n1 < CF-Cache-Status: HIT\n1 < Age: 850\n1 < Report-To: {\"endpoints\":[{\"url\":\"https:\\\/\\\/a.nel.cloudflare.com\\\/report\\\/v3?s=z7Jm4E78cXffmqkyfvyd205sLM2ZXuyV3iPYEqsBH25ClrjhmKVhFalZYIMtQ1%2Bk7x1OC3tr%2By6XEvZu4BSK%2FEEpsODngDvS%2B5wzB5EuKbjSiHaMlJZic8%2FWQQ%3D%3D\"}],\"group\":\"cf-nel\",\"max_age\":604800}\n1 < NEL: {\"success_fraction\":0,\"report_to\":\"cf-nel\",\"max_age\":604800}\n1 < Vary: Accept-Encoding\n1 < Server: cloudflare\n1 < CF-RAY: 752d9fff4caff4b0-BOM\n{\"page\":1,\"per_page\":6,\"total\":12,\"total_pages\":2,\"data\":[{\"id\":1,\"email\":\"george.bluth@reqres.in\",\"first_name\":\"George\",\"last_name\":\"Bluth\",\"avatar\":\"https:\/\/reqres.in\/img\/faces\/1-image.jpg\"},{\"id\":2,\"email\":\"janet.weaver@reqres.in\",\"first_name\":\"Janet\",\"last_name\":\"Weaver\",\"avatar\":\"https:\/\/reqres.in\/img\/faces\/2-image.jpg\"},{\"id\":3,\"email\":\"emma.wong@reqres.in\",\"first_name\":\"Emma\",\"last_name\":\"Wong\",\"avatar\":\"https:\/\/reqres.in\/img\/faces\/3-image.jpg\"},{\"id\":4,\"email\":\"eve.holt@reqres.in\",\"first_name\":\"Eve\",\"last_name\":\"Holt\",\"avatar\":\"https:\/\/reqres.in\/img\/faces\/4-image.jpg\"},{\"id\":5,\"email\":\"charles.morris@reqres.in\",\"first_name\":\"Charles\",\"last_name\":\"Morris\",\"avatar\":\"https:\/\/reqres.in\/img\/faces\/5-image.jpg\"},{\"id\":6,\"email\":\"tracey.ramos@reqres.in\",\"first_name\":\"Tracey\",\"last_name\":\"Ramos\",\"avatar\":\"https:\/\/reqres.in\/img\/faces\/6-image.jpg\"}],\"support\":{\"url\":\"https:\/\/reqres.in\/#support-heading\",\"text\":\"To keep ReqRes free, contributions towards server costs are appreciated!\"}}\n\n"},{"result":{"nanos":0,"errorMessage":"no step-definition method match found for: staus 200\nsrc\/test\/java\/tests\/Header.feature:11","millis":0.0,"status":"failed"},"step":{"line":11,"prefix":"Then","index":4,"text":"staus 200"},"stepLog":"19:59:13.208 src\/test\/java\/tests\/Header.feature:11\nThen staus 200\nno step-definition method match found for: staus 200\nsrc\/test\/java\/tests\/Header.feature:11\n"},{"result":{"nanos":0,"millis":0.0,"status":"skipped"},"step":{"line":12,"prefix":"*","index":5,"text":"print response"}}],"line":6,"description":"","durationMillis":906.1563,"failed":true,"error":"no step-definition method match found for: staus 200\nsrc\/test\/java\/tests\/Header.feature:11","executorName":"main","name":"Passing header individuallly","startTime":1664548152286,"refId":"[1:6]","endTime":1664548153208,"exampleIndex":-1}],"callDepth":0,"name":"Passing request headers in different ways","description":"","resultDate":"2022-09-30 07:59:13 pm","durationMillis":906.1563,"passedCount":0}