{"failedCount":1,"prefixedPath":"src\/test\/java\/tests\/Header.feature","packageQualifiedName":"src.test.java.tests.Header","loopIndex":-1,"relativePath":"src\/test\/java\/tests\/Header.feature","scenarioResults":[{"sectionIndex":0,"stepResults":[{"result":{"nanos":56747100,"millis":56.7471,"status":"passed"},"step":{"line":6,"prefix":"Given","index":0,"text":"header Host = 'reqres.in'"}},{"result":{"nanos":560400,"millis":0.5604,"status":"passed"},"step":{"line":7,"prefix":"And","index":1,"text":"header Connection = 'Keep-Alive'"}},{"result":{"nanos":672300,"millis":0.6723,"status":"passed"},"step":{"line":8,"prefix":"And","index":2,"text":"header User-Agent = 'Apache-HttpClient\/4.5.13'"}},{"result":{"nanos":541400,"millis":0.5414,"status":"passed"},"step":{"line":9,"prefix":"Given","index":3,"text":"url 'https:\/\/reqres.in\/api\/users'"}},{"result":{"nanos":809074700,"millis":809.0747,"status":"passed"},"step":{"line":10,"prefix":"When","index":4,"text":"method GET"},"stepLog":"20:05:18.297 request:\n1 > GET https:\/\/reqres.in\/api\/users\n1 > Host: reqres.in\n1 > Connection: Keep-Alive\n1 > User-Agent: Apache-HttpClient\/4.5.13\n1 > Accept-Encoding: gzip,deflate\n\n\n20:05:18.730 response time in milliseconds: 429\n1 < 200\n1 < Date: Fri, 30 Sep 2022 14:31:01 GMT\n1 < Content-Type: application\/json; charset=utf-8\n1 < Transfer-Encoding: chunked\n1 < Connection: keep-alive\n1 < X-Powered-By: Express\n1 < Access-Control-Allow-Origin: *\n1 < Etag: W\/\"3e4-2RLXvr5wTg9YQ6aH95CkYoFNuO8\"\n1 < Via: 1.1 vegur\n1 < Cache-Control: max-age=14400\n1 < CF-Cache-Status: HIT\n1 < Age: 6927\n1 < Report-To: {\"endpoints\":[{\"url\":\"https:\\\/\\\/a.nel.cloudflare.com\\\/report\\\/v3?s=6mg0FpEN0dPuirYxkU3T8sm%2FGwddbRNM%2BRf3%2F5%2B91MyMjZrEjsWrdOsAfocSPcVHt9Yw01wVyOpTFfeI8RAYT9vFQgcU%2BAYP2iT1asZHo6Ra0zPwB2KDYdlBLQ%3D%3D\"}],\"group\":\"cf-nel\",\"max_age\":604800}\n1 < NEL: {\"success_fraction\":0,\"report_to\":\"cf-nel\",\"max_age\":604800}\n1 < Vary: Accept-Encoding\n1 < Server: cloudflare\n1 < CF-RAY: 752da8ec2e47f2f3-BOM\n{\"page\":1,\"per_page\":6,\"total\":12,\"total_pages\":2,\"data\":[{\"id\":1,\"email\":\"george.bluth@reqres.in\",\"first_name\":\"George\",\"last_name\":\"Bluth\",\"avatar\":\"https:\/\/reqres.in\/img\/faces\/1-image.jpg\"},{\"id\":2,\"email\":\"janet.weaver@reqres.in\",\"first_name\":\"Janet\",\"last_name\":\"Weaver\",\"avatar\":\"https:\/\/reqres.in\/img\/faces\/2-image.jpg\"},{\"id\":3,\"email\":\"emma.wong@reqres.in\",\"first_name\":\"Emma\",\"last_name\":\"Wong\",\"avatar\":\"https:\/\/reqres.in\/img\/faces\/3-image.jpg\"},{\"id\":4,\"email\":\"eve.holt@reqres.in\",\"first_name\":\"Eve\",\"last_name\":\"Holt\",\"avatar\":\"https:\/\/reqres.in\/img\/faces\/4-image.jpg\"},{\"id\":5,\"email\":\"charles.morris@reqres.in\",\"first_name\":\"Charles\",\"last_name\":\"Morris\",\"avatar\":\"https:\/\/reqres.in\/img\/faces\/5-image.jpg\"},{\"id\":6,\"email\":\"tracey.ramos@reqres.in\",\"first_name\":\"Tracey\",\"last_name\":\"Ramos\",\"avatar\":\"https:\/\/reqres.in\/img\/faces\/6-image.jpg\"}],\"support\":{\"url\":\"https:\/\/reqres.in\/#support-heading\",\"text\":\"To keep ReqRes free, contributions towards server costs are appreciated!\"}}\n\n"},{"result":{"nanos":0,"errorMessage":"no step-definition method match found for: staus 200\nsrc\/test\/java\/tests\/Header.feature:11","millis":0.0,"status":"failed"},"step":{"line":11,"prefix":"Then","index":5,"text":"staus 200"},"stepLog":"20:05:18.776 src\/test\/java\/tests\/Header.feature:11\nThen staus 200\nno step-definition method match found for: staus 200\nsrc\/test\/java\/tests\/Header.feature:11\n"},{"result":{"nanos":0,"millis":0.0,"status":"skipped"},"step":{"line":12,"prefix":"*","index":6,"text":"print response"}}],"line":5,"description":"","durationMillis":867.5959,"failed":true,"error":"no step-definition method match found for: staus 200\nsrc\/test\/java\/tests\/Header.feature:11","executorName":"main","name":"Passing header individuallly","startTime":1664548517892,"refId":"[1:5]","endTime":1664548518776,"exampleIndex":-1}],"callDepth":0,"name":"Passing request headers in different ways","description":"","resultDate":"2022-09-30 08:05:18 pm","durationMillis":867.5959,"passedCount":0}