{"failedCount":0,"prefixedPath":"src\/test\/java\/tests\/Header.feature","packageQualifiedName":"src.test.java.tests.Header","loopIndex":-1,"relativePath":"src\/test\/java\/tests\/Header.feature","scenarioResults":[{"sectionIndex":0,"stepResults":[{"result":{"nanos":84213800,"millis":84.2138,"status":"passed"},"step":{"line":6,"prefix":"Given","index":0,"text":"header Host = 'reqres.in'"}},{"result":{"nanos":861400,"millis":0.8614,"status":"passed"},"step":{"line":7,"prefix":"And","index":1,"text":"header Connection = 'Keep-Alive'"}},{"result":{"nanos":734200,"millis":0.7342,"status":"passed"},"step":{"line":8,"prefix":"And","index":2,"text":"header User-Agent = 'Apache-HttpClient\/4.5.13'"}},{"result":{"nanos":754700,"millis":0.7547,"status":"passed"},"step":{"line":9,"prefix":"Given","index":3,"text":"url 'https:\/\/reqres.in\/api\/users'"}},{"result":{"nanos":858414400,"millis":858.4144,"status":"passed"},"step":{"line":10,"prefix":"When","index":4,"text":"method GET"},"stepLog":"20:07:10.913 request:\n1 > GET https:\/\/reqres.in\/api\/users\n1 > Host: reqres.in\n1 > Connection: Keep-Alive\n1 > User-Agent: Apache-HttpClient\/4.5.13\n1 > Accept-Encoding: gzip,deflate\n\n\n20:07:11.312 response time in milliseconds: 394\n1 < 200\n1 < Date: Fri, 30 Sep 2022 14:32:54 GMT\n1 < Content-Type: application\/json; charset=utf-8\n1 < Transfer-Encoding: chunked\n1 < Connection: keep-alive\n1 < X-Powered-By: Express\n1 < Access-Control-Allow-Origin: *\n1 < Etag: W\/\"3e4-2RLXvr5wTg9YQ6aH95CkYoFNuO8\"\n1 < Via: 1.1 vegur\n1 < Cache-Control: max-age=14400\n1 < CF-Cache-Status: HIT\n1 < Age: 3098\n1 < Report-To: {\"endpoints\":[{\"url\":\"https:\\\/\\\/a.nel.cloudflare.com\\\/report\\\/v3?s=LYiOyag79n9DROkHOuidKDMStCKalipTRBjSJ%2FbuVyd2GWOiXXm3K0w0YPa%2BWL74EBF3UIX%2F60YhvhzFr%2FI%2BAOeTOamrBgoDh2acahJ2iib7c7giTEp1DA2Nfw%3D%3D\"}],\"group\":\"cf-nel\",\"max_age\":604800}\n1 < NEL: {\"success_fraction\":0,\"report_to\":\"cf-nel\",\"max_age\":604800}\n1 < Vary: Accept-Encoding\n1 < Server: cloudflare\n1 < CF-RAY: 752dabac19746ed1-BOM\n{\"page\":1,\"per_page\":6,\"total\":12,\"total_pages\":2,\"data\":[{\"id\":1,\"email\":\"george.bluth@reqres.in\",\"first_name\":\"George\",\"last_name\":\"Bluth\",\"avatar\":\"https:\/\/reqres.in\/img\/faces\/1-image.jpg\"},{\"id\":2,\"email\":\"janet.weaver@reqres.in\",\"first_name\":\"Janet\",\"last_name\":\"Weaver\",\"avatar\":\"https:\/\/reqres.in\/img\/faces\/2-image.jpg\"},{\"id\":3,\"email\":\"emma.wong@reqres.in\",\"first_name\":\"Emma\",\"last_name\":\"Wong\",\"avatar\":\"https:\/\/reqres.in\/img\/faces\/3-image.jpg\"},{\"id\":4,\"email\":\"eve.holt@reqres.in\",\"first_name\":\"Eve\",\"last_name\":\"Holt\",\"avatar\":\"https:\/\/reqres.in\/img\/faces\/4-image.jpg\"},{\"id\":5,\"email\":\"charles.morris@reqres.in\",\"first_name\":\"Charles\",\"last_name\":\"Morris\",\"avatar\":\"https:\/\/reqres.in\/img\/faces\/5-image.jpg\"},{\"id\":6,\"email\":\"tracey.ramos@reqres.in\",\"first_name\":\"Tracey\",\"last_name\":\"Ramos\",\"avatar\":\"https:\/\/reqres.in\/img\/faces\/6-image.jpg\"}],\"support\":{\"url\":\"https:\/\/reqres.in\/#support-heading\",\"text\":\"To keep ReqRes free, contributions towards server costs are appreciated!\"}}\n\n"},{"result":{"nanos":26600,"millis":0.0266,"status":"passed"},"step":{"line":11,"prefix":"Then","index":5,"text":"status 200"}},{"result":{"nanos":108012800,"millis":108.0128,"status":"passed"},"step":{"line":12,"prefix":"*","index":6,"text":"print response"},"stepLog":"20:07:11.465 [print] {\n  \"page\": 1,\n  \"per_page\": 6,\n  \"total\": 12,\n  \"total_pages\": 2,\n  \"data\": [\n    {\n      \"id\": 1,\n      \"email\": \"george.bluth@reqres.in\",\n      \"first_name\": \"George\",\n      \"last_name\": \"Bluth\",\n      \"avatar\": \"https:\/\/reqres.in\/img\/faces\/1-image.jpg\"\n    },\n    {\n      \"id\": 2,\n      \"email\": \"janet.weaver@reqres.in\",\n      \"first_name\": \"Janet\",\n      \"last_name\": \"Weaver\",\n      \"avatar\": \"https:\/\/reqres.in\/img\/faces\/2-image.jpg\"\n    },\n    {\n      \"id\": 3,\n      \"email\": \"emma.wong@reqres.in\",\n      \"first_name\": \"Emma\",\n      \"last_name\": \"Wong\",\n      \"avatar\": \"https:\/\/reqres.in\/img\/faces\/3-image.jpg\"\n    },\n    {\n      \"id\": 4,\n      \"email\": \"eve.holt@reqres.in\",\n      \"first_name\": \"Eve\",\n      \"last_name\": \"Holt\",\n      \"avatar\": \"https:\/\/reqres.in\/img\/faces\/4-image.jpg\"\n    },\n    {\n      \"id\": 5,\n      \"email\": \"charles.morris@reqres.in\",\n      \"first_name\": \"Charles\",\n      \"last_name\": \"Morris\",\n      \"avatar\": \"https:\/\/reqres.in\/img\/faces\/5-image.jpg\"\n    },\n    {\n      \"id\": 6,\n      \"email\": \"tracey.ramos@reqres.in\",\n      \"first_name\": \"Tracey\",\n      \"last_name\": \"Ramos\",\n      \"avatar\": \"https:\/\/reqres.in\/img\/faces\/6-image.jpg\"\n    }\n  ],\n  \"support\": {\n    \"url\": \"https:\/\/reqres.in\/#support-heading\",\n    \"text\": \"To keep ReqRes free, contributions towards server costs are appreciated!\"\n  }\n}\n \n"}],"executorName":"main","line":5,"name":"Passing header individuallly","description":"","durationMillis":1053.0179,"startTime":1664548630400,"failed":false,"refId":"[1:5]","endTime":1664548631470,"exampleIndex":-1}],"callDepth":0,"name":"Passing request headers in different ways","description":"","resultDate":"2022-09-30 08:07:11 pm","durationMillis":1053.0179,"passedCount":1}