{"failedCount":0,"prefixedPath":"src\/test\/java\/tests\/getCallWithFunction.feature","packageQualifiedName":"src.test.java.tests.getCallWithFunction","loopIndex":-1,"relativePath":"src\/test\/java\/tests\/getCallWithFunction.feature","scenarioResults":[{"sectionIndex":0,"stepResults":[{"result":{"nanos":99090100,"millis":99.0901,"status":"passed"},"step":{"line":5,"prefix":"Given","index":0,"text":"url 'https:\/\/reqres.in\/api\/users'"}},{"result":{"nanos":978609100,"millis":978.6091,"status":"passed"},"step":{"line":6,"prefix":"When","index":1,"text":"method GET"},"stepLog":"12:26:50.667 request:\n1 > GET https:\/\/reqres.in\/api\/users\n1 > Host: reqres.in\n1 > Connection: Keep-Alive\n1 > User-Agent: Apache-HttpClient\/4.5.13 (Java\/17.0.1)\n1 > Accept-Encoding: gzip,deflate\n\n\n12:26:51.201 response time in milliseconds: 526\n1 < 200\n1 < Date: Sat, 01 Oct 2022 06:52:34 GMT\n1 < Content-Type: application\/json; charset=utf-8\n1 < Transfer-Encoding: chunked\n1 < Connection: keep-alive\n1 < X-Powered-By: Express\n1 < Access-Control-Allow-Origin: *\n1 < Etag: W\/\"3e4-2RLXvr5wTg9YQ6aH95CkYoFNuO8\"\n1 < Via: 1.1 vegur\n1 < Cache-Control: max-age=14400\n1 < CF-Cache-Status: HIT\n1 < Age: 5613\n1 < Report-To: {\"endpoints\":[{\"url\":\"https:\\\/\\\/a.nel.cloudflare.com\\\/report\\\/v3?s=QchSAIIUF47fdYaENQGWMIuWiQAnDR%2BxLXyuxdxbM4VF%2BBjWNgkz644o3wSrxzdd2uf%2FMOU6QPa2W1abpvGAwXrgPep3mf9b7%2F9UTKLavV%2FXCO0D1a8ZmdjYKA%3D%3D\"}],\"group\":\"cf-nel\",\"max_age\":604800}\n1 < NEL: {\"success_fraction\":0,\"report_to\":\"cf-nel\",\"max_age\":604800}\n1 < Vary: Accept-Encoding\n1 < Server: cloudflare\n1 < CF-RAY: 753346bcbe8985ee-BOM\n{\"page\":1,\"per_page\":6,\"total\":12,\"total_pages\":2,\"data\":[{\"id\":1,\"email\":\"george.bluth@reqres.in\",\"first_name\":\"George\",\"last_name\":\"Bluth\",\"avatar\":\"https:\/\/reqres.in\/img\/faces\/1-image.jpg\"},{\"id\":2,\"email\":\"janet.weaver@reqres.in\",\"first_name\":\"Janet\",\"last_name\":\"Weaver\",\"avatar\":\"https:\/\/reqres.in\/img\/faces\/2-image.jpg\"},{\"id\":3,\"email\":\"emma.wong@reqres.in\",\"first_name\":\"Emma\",\"last_name\":\"Wong\",\"avatar\":\"https:\/\/reqres.in\/img\/faces\/3-image.jpg\"},{\"id\":4,\"email\":\"eve.holt@reqres.in\",\"first_name\":\"Eve\",\"last_name\":\"Holt\",\"avatar\":\"https:\/\/reqres.in\/img\/faces\/4-image.jpg\"},{\"id\":5,\"email\":\"charles.morris@reqres.in\",\"first_name\":\"Charles\",\"last_name\":\"Morris\",\"avatar\":\"https:\/\/reqres.in\/img\/faces\/5-image.jpg\"},{\"id\":6,\"email\":\"tracey.ramos@reqres.in\",\"first_name\":\"Tracey\",\"last_name\":\"Ramos\",\"avatar\":\"https:\/\/reqres.in\/img\/faces\/6-image.jpg\"}],\"support\":{\"url\":\"https:\/\/reqres.in\/#support-heading\",\"text\":\"To keep ReqRes free, contributions towards server costs are appreciated!\"}}\n\n"},{"result":{"nanos":102800,"millis":0.1028,"status":"passed"},"step":{"line":7,"prefix":"Then","index":2,"text":"status 200"}},{"result":{"nanos":54366500,"millis":54.3665,"status":"passed"},"step":{"line":8,"prefix":"*","index":3,"text":"def data = response.data"}},{"result":{"nanos":80401900,"millis":80.4019,"status":"passed"},"step":{"line":9,"prefix":"Then","index":4,"text":"print '--------Data--------',data"},"stepLog":"12:26:51.440 [print] --------Data-------- [\n  {\n    \"id\": 1,\n    \"email\": \"george.bluth@reqres.in\",\n    \"first_name\": \"George\",\n    \"last_name\": \"Bluth\",\n    \"avatar\": \"https:\/\/reqres.in\/img\/faces\/1-image.jpg\"\n  },\n  {\n    \"id\": 2,\n    \"email\": \"janet.weaver@reqres.in\",\n    \"first_name\": \"Janet\",\n    \"last_name\": \"Weaver\",\n    \"avatar\": \"https:\/\/reqres.in\/img\/faces\/2-image.jpg\"\n  },\n  {\n    \"id\": 3,\n    \"email\": \"emma.wong@reqres.in\",\n    \"first_name\": \"Emma\",\n    \"last_name\": \"Wong\",\n    \"avatar\": \"https:\/\/reqres.in\/img\/faces\/3-image.jpg\"\n  },\n  {\n    \"id\": 4,\n    \"email\": \"eve.holt@reqres.in\",\n    \"first_name\": \"Eve\",\n    \"last_name\": \"Holt\",\n    \"avatar\": \"https:\/\/reqres.in\/img\/faces\/4-image.jpg\"\n  },\n  {\n    \"id\": 5,\n    \"email\": \"charles.morris@reqres.in\",\n    \"first_name\": \"Charles\",\n    \"last_name\": \"Morris\",\n    \"avatar\": \"https:\/\/reqres.in\/img\/faces\/5-image.jpg\"\n  },\n  {\n    \"id\": 6,\n    \"email\": \"tracey.ramos@reqres.in\",\n    \"first_name\": \"Tracey\",\n    \"last_name\": \"Ramos\",\n    \"avatar\": \"https:\/\/reqres.in\/img\/faces\/6-image.jpg\"\n  }\n]\n \n"},{"result":{"nanos":6641500,"millis":6.6415,"status":"passed"},"step":{"endLine":17,"comments":["#Defining function"],"line":12,"prefix":"*","docString":"function(arg){\nreturn arg\n}","index":5,"text":"def myFun ="}},{"result":{"nanos":13028500,"millis":13.0285,"status":"passed"},"step":{"comments":["#Calling function with arg data"],"line":20,"prefix":"*","index":6,"text":"def userDetails = call myFun data"}},{"result":{"nanos":1358900,"millis":1.3589,"status":"passed"},"step":{"line":21,"prefix":"Then","index":7,"text":"print '-----------Users Details------------',userDetails"},"stepLog":"12:26:51.461 [print] -----------Users Details------------ [\n  {\n    \"id\": 1,\n    \"email\": \"george.bluth@reqres.in\",\n    \"first_name\": \"George\",\n    \"last_name\": \"Bluth\",\n    \"avatar\": \"https:\/\/reqres.in\/img\/faces\/1-image.jpg\"\n  },\n  {\n    \"id\": 2,\n    \"email\": \"janet.weaver@reqres.in\",\n    \"first_name\": \"Janet\",\n    \"last_name\": \"Weaver\",\n    \"avatar\": \"https:\/\/reqres.in\/img\/faces\/2-image.jpg\"\n  },\n  {\n    \"id\": 3,\n    \"email\": \"emma.wong@reqres.in\",\n    \"first_name\": \"Emma\",\n    \"last_name\": \"Wong\",\n    \"avatar\": \"https:\/\/reqres.in\/img\/faces\/3-image.jpg\"\n  },\n  {\n    \"id\": 4,\n    \"email\": \"eve.holt@reqres.in\",\n    \"first_name\": \"Eve\",\n    \"last_name\": \"Holt\",\n    \"avatar\": \"https:\/\/reqres.in\/img\/faces\/4-image.jpg\"\n  },\n  {\n    \"id\": 5,\n    \"email\": \"charles.morris@reqres.in\",\n    \"first_name\": \"Charles\",\n    \"last_name\": \"Morris\",\n    \"avatar\": \"https:\/\/reqres.in\/img\/faces\/5-image.jpg\"\n  },\n  {\n    \"id\": 6,\n    \"email\": \"tracey.ramos@reqres.in\",\n    \"first_name\": \"Tracey\",\n    \"last_name\": \"Ramos\",\n    \"avatar\": \"https:\/\/reqres.in\/img\/faces\/6-image.jpg\"\n  }\n]\n \n"}],"executorName":"main","line":3,"name":"Get user details with function","description":"","durationMillis":1233.5993,"startTime":1664607410201,"failed":false,"refId":"[1:3]","endTime":1664607411462,"exampleIndex":-1}],"callDepth":0,"name":"Calling function from script","description":"","resultDate":"2022-10-01 12:26:51 pm","durationMillis":1233.5993,"passedCount":1}