{"failedCount":1,"prefixedPath":"src\/test\/java\/tests\/N_GET.feature","packageQualifiedName":"src.test.java.tests.N_GET","loopIndex":-1,"relativePath":"src\/test\/java\/tests\/N_GET.feature","scenarioResults":[{"sectionIndex":0,"stepResults":[{"result":{"nanos":100014900,"millis":100.0149,"status":"passed"},"step":{"line":7,"prefix":"Given","index":0,"text":"url 'https:\/\/reqres.in\/api\/users'"}},{"result":{"nanos":826800,"millis":0.8268,"status":"passed"},"step":{"line":8,"prefix":"And","index":1,"text":"path '2'"}},{"result":{"nanos":980434900,"millis":980.4349,"status":"passed"},"step":{"line":9,"prefix":"When","index":2,"text":"method GET"},"stepLog":"11:14:16.247 request:\n1 > GET https:\/\/reqres.in\/api\/users\/2\n1 > Host: reqres.in\n1 > Connection: Keep-Alive\n1 > User-Agent: Apache-HttpClient\/4.5.13 (Java\/17.0.1)\n1 > Accept-Encoding: gzip,deflate\n\n\n11:14:16.884 response time in milliseconds: 633\n1 < 200\n1 < Date: Sat, 01 Oct 2022 05:39:59 GMT\n1 < Content-Type: application\/json; charset=utf-8\n1 < Transfer-Encoding: chunked\n1 < Connection: keep-alive\n1 < X-Powered-By: Express\n1 < Access-Control-Allow-Origin: *\n1 < Etag: W\/\"118-pbdwwFo9SKNhD3Lx5iHJyngpq00\"\n1 < Via: 1.1 vegur\n1 < Cache-Control: max-age=14400\n1 < CF-Cache-Status: HIT\n1 < Age: 4187\n1 < Report-To: {\"endpoints\":[{\"url\":\"https:\\\/\\\/a.nel.cloudflare.com\\\/report\\\/v3?s=NckV1hseFtkzX4pzjDBZBj5E4Otw8p9IknkAh6IM3d1wD5lYpCNEEZkV93KrOCMssZEyHWF5e7xWsmGNm7YlIov40%2BK2mg9WtK%2F9keusInKpp8EEhjZITkyfpQ%3D%3D\"}],\"group\":\"cf-nel\",\"max_age\":604800}\n1 < NEL: {\"success_fraction\":0,\"report_to\":\"cf-nel\",\"max_age\":604800}\n1 < Vary: Accept-Encoding\n1 < Server: cloudflare\n1 < CF-RAY: 7532dc6959ec856f-BOM\n{\"data\":{\"id\":2,\"email\":\"janet.weaver@reqres.in\",\"first_name\":\"Janet\",\"last_name\":\"Weaver\",\"avatar\":\"https:\/\/reqres.in\/img\/faces\/2-image.jpg\"},\"support\":{\"url\":\"https:\/\/reqres.in\/#support-heading\",\"text\":\"To keep ReqRes free, contributions towards server costs are appreciated!\"}}\n\n"},{"result":{"nanos":50100,"millis":0.0501,"status":"passed"},"step":{"line":10,"prefix":"Then","index":3,"text":"status 200"}},{"result":{"nanos":90492300,"millis":90.4923,"status":"passed"},"step":{"line":11,"prefix":"*","index":4,"text":"print response"},"stepLog":"11:14:17.012 [print] {\n  \"data\": {\n    \"id\": 2,\n    \"email\": \"janet.weaver@reqres.in\",\n    \"first_name\": \"Janet\",\n    \"last_name\": \"Weaver\",\n    \"avatar\": \"https:\/\/reqres.in\/img\/faces\/2-image.jpg\"\n  },\n  \"support\": {\n    \"url\": \"https:\/\/reqres.in\/#support-heading\",\n    \"text\": \"To keep ReqRes free, contributions towards server costs are appreciated!\"\n  }\n}\n \n"},{"result":{"nanos":13990200,"millis":13.9902,"status":"passed"},"step":{"line":12,"prefix":"*","index":5,"text":"def jsonResponse = response"}},{"result":{"nanos":1083100,"millis":1.0831,"status":"passed"},"step":{"line":13,"prefix":"*","index":6,"text":"def actualName = jsonResponse.data.first_name"}},{"result":{"nanos":1112700,"millis":1.1127,"status":"passed"},"step":{"line":14,"prefix":"*","index":7,"text":"print actualName"},"stepLog":"11:14:17.030 [print] Janet \n"},{"result":{"nanos":20179600,"millis":20.1796,"status":"passed"},"step":{"line":15,"prefix":"*","index":8,"text":"match actualName == jsonResponse.data.first_name"}},{"result":{"nanos":10178600,"millis":10.1786,"status":"passed"},"step":{"line":16,"prefix":"*","index":9,"text":"print \"Actual Name \"+actualName+\"Matched with Response Name \"+jsonResponse.data.first_name"},"stepLog":"11:14:17.061 [print] Actual Name JanetMatched with Response Name Janet \n"}],"executorName":"main","line":6,"name":"GET user details with API","description":"","durationMillis":1218.3632,"startTime":1664603055814,"failed":false,"refId":"[1:6]","endTime":1664603057061,"exampleIndex":-1},{"sectionIndex":1,"stepResults":[{"result":{"nanos":20302000,"millis":20.302,"status":"passed"},"step":{"line":19,"prefix":"*","index":0,"text":"def query = {id:'7'}"}},{"result":{"nanos":514900,"millis":0.5149,"status":"passed"},"step":{"line":20,"prefix":"Given","index":1,"text":"url 'https:\/\/reqres.in\/api\/users'"}},{"result":{"nanos":2482700,"millis":2.4827,"status":"passed"},"step":{"line":21,"prefix":"And","index":2,"text":"params query"}},{"result":{"nanos":554556600,"millis":554.5566,"status":"passed"},"step":{"line":22,"prefix":"When","index":3,"text":"method GET"},"stepLog":"11:14:17.094 request:\n1 > GET https:\/\/reqres.in\/api\/users?id=7\n1 > Host: reqres.in\n1 > Connection: Keep-Alive\n1 > User-Agent: Apache-HttpClient\/4.5.13 (Java\/17.0.1)\n1 > Accept-Encoding: gzip,deflate\n\n\n11:14:17.642 response time in milliseconds: 548\n1 < 200\n1 < Date: Sat, 01 Oct 2022 05:40:00 GMT\n1 < Content-Type: application\/json; charset=utf-8\n1 < Transfer-Encoding: chunked\n1 < Connection: keep-alive\n1 < X-Powered-By: Express\n1 < Access-Control-Allow-Origin: *\n1 < Etag: W\/\"11c-Esb3aX7LcoAMUKcF3i6bvWwxqls\"\n1 < Via: 1.1 vegur\n1 < Cache-Control: max-age=14400\n1 < CF-Cache-Status: REVALIDATED\n1 < Report-To: {\"endpoints\":[{\"url\":\"https:\\\/\\\/a.nel.cloudflare.com\\\/report\\\/v3?s=1cFOSjKWa1JDky8lDFIQlz4EQF9rt8rtkXhjq%2FVTWIGpO1RlLId8jn%2B5rL8CJBWPLq7whfcY1nKIdInk9lnoaRWxZsTHlcAZtgiqQBzJ7wQtJZ2LBzW22Wz91Q%3D%3D\"}],\"group\":\"cf-nel\",\"max_age\":604800}\n1 < NEL: {\"success_fraction\":0,\"report_to\":\"cf-nel\",\"max_age\":604800}\n1 < Vary: Accept-Encoding\n1 < Server: cloudflare\n1 < CF-RAY: 7532dc6b4e9985c0-BOM\n{\"data\":{\"id\":7,\"email\":\"michael.lawson@reqres.in\",\"first_name\":\"Michael\",\"last_name\":\"Lawson\",\"avatar\":\"https:\/\/reqres.in\/img\/faces\/7-image.jpg\"},\"support\":{\"url\":\"https:\/\/reqres.in\/#support-heading\",\"text\":\"To keep ReqRes free, contributions towards server costs are appreciated!\"}}\n\n"},{"result":{"nanos":30200,"millis":0.0302,"status":"passed"},"step":{"line":23,"prefix":"Then","index":4,"text":"status 200"}},{"result":{"nanos":1911900,"millis":1.9119,"status":"passed"},"step":{"line":24,"prefix":"*","index":5,"text":"print response"},"stepLog":"11:14:17.648 [print] {\n  \"data\": {\n    \"id\": 7,\n    \"email\": \"michael.lawson@reqres.in\",\n    \"first_name\": \"Michael\",\n    \"last_name\": \"Lawson\",\n    \"avatar\": \"https:\/\/reqres.in\/img\/faces\/7-image.jpg\"\n  },\n  \"support\": {\n    \"url\": \"https:\/\/reqres.in\/#support-heading\",\n    \"text\": \"To keep ReqRes free, contributions towards server costs are appreciated!\"\n  }\n}\n \n"}],"executorName":"main","line":18,"name":"Get users with specific first name","description":"","durationMillis":579.7983,"startTime":1664603057067,"failed":false,"refId":"[2:18]","endTime":1664603057648,"exampleIndex":-1},{"sectionIndex":2,"stepResults":[{"result":{"nanos":1121900,"millis":1.1219,"status":"passed"},"step":{"line":27,"prefix":"*","index":0,"text":"def query = {id:'1' , avatar:'https:\/\/reqres.in\/img\/faces\/1-image.jpg'}"}},{"result":{"nanos":517500,"millis":0.5175,"status":"passed"},"step":{"line":28,"prefix":"Given","index":1,"text":"url 'https:\/\/reqres.in\/api\/users'"}},{"result":{"nanos":970800,"millis":0.9708,"status":"passed"},"step":{"line":29,"prefix":"And","index":2,"text":"params query"}},{"result":{"nanos":495376300,"millis":495.3763,"status":"passed"},"step":{"line":30,"prefix":"When","index":3,"text":"method GET"},"stepLog":"11:14:17.668 request:\n1 > GET https:\/\/reqres.in\/api\/users?id=1&avatar=https%3A%2F%2Freqres.in%2Fimg%2Ffaces%2F1-image.jpg\n1 > Host: reqres.in\n1 > Connection: Keep-Alive\n1 > User-Agent: Apache-HttpClient\/4.5.13 (Java\/17.0.1)\n1 > Accept-Encoding: gzip,deflate\n\n\n11:14:18.158 response time in milliseconds: 489\n1 < 200\n1 < Date: Sat, 01 Oct 2022 05:40:00 GMT\n1 < Content-Type: application\/json; charset=utf-8\n1 < Transfer-Encoding: chunked\n1 < Connection: keep-alive\n1 < X-Powered-By: Express\n1 < Access-Control-Allow-Origin: *\n1 < Etag: W\/\"118-P3iKcVpIgCj9HqYeOOrGLX8qJVc\"\n1 < Via: 1.1 vegur\n1 < Cache-Control: max-age=14400\n1 < CF-Cache-Status: MISS\n1 < Report-To: {\"endpoints\":[{\"url\":\"https:\\\/\\\/a.nel.cloudflare.com\\\/report\\\/v3?s=RmBV1FDaVymKFElV81cgDdTdmq6WFCtVDAWGZgl7hJ0EWHvBhFrLry3UPXjVglLTPyqizQr%2BhlM6pz50CzfHIYQQ55kReCXV5Q3dUGavIJ36Ixpo4KO1b%2BpJIg%3D%3D\"}],\"group\":\"cf-nel\",\"max_age\":604800}\n1 < NEL: {\"success_fraction\":0,\"report_to\":\"cf-nel\",\"max_age\":604800}\n1 < Vary: Accept-Encoding\n1 < Server: cloudflare\n1 < CF-RAY: 7532dc6ec89ef307-BOM\n{\"data\":{\"id\":1,\"email\":\"george.bluth@reqres.in\",\"first_name\":\"George\",\"last_name\":\"Bluth\",\"avatar\":\"https:\/\/reqres.in\/img\/faces\/1-image.jpg\"},\"support\":{\"url\":\"https:\/\/reqres.in\/#support-heading\",\"text\":\"To keep ReqRes free, contributions towards server costs are appreciated!\"}}\n\n"},{"result":{"nanos":35000,"millis":0.035,"status":"passed"},"step":{"line":31,"prefix":"Then","index":4,"text":"status 200"}},{"result":{"nanos":1652600,"millis":1.6526,"status":"passed"},"step":{"line":32,"prefix":"*","index":5,"text":"print response"},"stepLog":"11:14:18.162 [print] {\n  \"data\": {\n    \"id\": 1,\n    \"email\": \"george.bluth@reqres.in\",\n    \"first_name\": \"George\",\n    \"last_name\": \"Bluth\",\n    \"avatar\": \"https:\/\/reqres.in\/img\/faces\/1-image.jpg\"\n  },\n  \"support\": {\n    \"url\": \"https:\/\/reqres.in\/#support-heading\",\n    \"text\": \"To keep ReqRes free, contributions towards server costs are appreciated!\"\n  }\n}\n \n"}],"executorName":"main","line":26,"name":"Get users with specific multiple query parameter","description":"","durationMillis":499.6741,"startTime":1664603057660,"failed":false,"refId":"[3:26]","endTime":1664603058162,"exampleIndex":-1},{"sectionIndex":3,"stepResults":[{"result":{"nanos":1088900,"millis":1.0889,"status":"passed"},"step":{"line":35,"prefix":"*","index":0,"text":"def query = {avatar:'https:\/\/reqres.in\/img\/faces\/1-image.jpg'}"}},{"result":{"nanos":595800,"millis":0.5958,"status":"passed"},"step":{"line":36,"prefix":"Given","index":1,"text":"url 'https:\/\/reqres.in\/api\/users'"}},{"result":{"nanos":508700,"millis":0.5087,"status":"passed"},"step":{"line":37,"prefix":"And","index":2,"text":"params query"}},{"result":{"nanos":491813700,"millis":491.8137,"status":"passed"},"step":{"line":38,"prefix":"When","index":3,"text":"method GET"},"stepLog":"11:14:18.181 request:\n1 > GET https:\/\/reqres.in\/api\/users?avatar=https%3A%2F%2Freqres.in%2Fimg%2Ffaces%2F1-image.jpg\n1 > Host: reqres.in\n1 > Connection: Keep-Alive\n1 > User-Agent: Apache-HttpClient\/4.5.13 (Java\/17.0.1)\n1 > Accept-Encoding: gzip,deflate\n\n\n11:14:18.667 response time in milliseconds: 484\n1 < 200\n1 < Date: Sat, 01 Oct 2022 05:40:01 GMT\n1 < Content-Type: application\/json; charset=utf-8\n1 < Transfer-Encoding: chunked\n1 < Connection: keep-alive\n1 < X-Powered-By: Express\n1 < Access-Control-Allow-Origin: *\n1 < Etag: W\/\"3e4-2RLXvr5wTg9YQ6aH95CkYoFNuO8\"\n1 < Via: 1.1 vegur\n1 < Cache-Control: max-age=14400\n1 < CF-Cache-Status: MISS\n1 < Report-To: {\"endpoints\":[{\"url\":\"https:\\\/\\\/a.nel.cloudflare.com\\\/report\\\/v3?s=67%2FEfVntUDkZGobPLcSPE%2BFJ%2BD7xW%2BxhK8GlbWixAKoeMIznig5s17Fvk4o0dzxrjFfjgfoWDtHeCbbl%2FWO3M%2FXZhAd5SybhsNjzLz074xftkTGGlPistNz3dw%3D%3D\"}],\"group\":\"cf-nel\",\"max_age\":604800}\n1 < NEL: {\"success_fraction\":0,\"report_to\":\"cf-nel\",\"max_age\":604800}\n1 < Vary: Accept-Encoding\n1 < Server: cloudflare\n1 < CF-RAY: 7532dc71ffbcf2d2-BOM\n{\"page\":1,\"per_page\":6,\"total\":12,\"total_pages\":2,\"data\":[{\"id\":1,\"email\":\"george.bluth@reqres.in\",\"first_name\":\"George\",\"last_name\":\"Bluth\",\"avatar\":\"https:\/\/reqres.in\/img\/faces\/1-image.jpg\"},{\"id\":2,\"email\":\"janet.weaver@reqres.in\",\"first_name\":\"Janet\",\"last_name\":\"Weaver\",\"avatar\":\"https:\/\/reqres.in\/img\/faces\/2-image.jpg\"},{\"id\":3,\"email\":\"emma.wong@reqres.in\",\"first_name\":\"Emma\",\"last_name\":\"Wong\",\"avatar\":\"https:\/\/reqres.in\/img\/faces\/3-image.jpg\"},{\"id\":4,\"email\":\"eve.holt@reqres.in\",\"first_name\":\"Eve\",\"last_name\":\"Holt\",\"avatar\":\"https:\/\/reqres.in\/img\/faces\/4-image.jpg\"},{\"id\":5,\"email\":\"charles.morris@reqres.in\",\"first_name\":\"Charles\",\"last_name\":\"Morris\",\"avatar\":\"https:\/\/reqres.in\/img\/faces\/5-image.jpg\"},{\"id\":6,\"email\":\"tracey.ramos@reqres.in\",\"first_name\":\"Tracey\",\"last_name\":\"Ramos\",\"avatar\":\"https:\/\/reqres.in\/img\/faces\/6-image.jpg\"}],\"support\":{\"url\":\"https:\/\/reqres.in\/#support-heading\",\"text\":\"To keep ReqRes free, contributions towards server costs are appreciated!\"}}\n\n"},{"result":{"nanos":28700,"millis":0.0287,"status":"passed"},"step":{"line":39,"prefix":"Then","index":4,"text":"status 200"}},{"result":{"nanos":699400,"millis":0.6994,"status":"passed"},"step":{"line":40,"prefix":"*","index":5,"text":"def jsonResponse = response"}},{"result":{"nanos":10882200,"millis":10.8822,"status":"passed"},"step":{"line":41,"prefix":"*","index":6,"text":"def totalCount = jsonResponse.data.length"}},{"result":{"nanos":2782000,"millis":2.782,"status":"passed"},"step":{"line":42,"prefix":"*","index":7,"text":"print response"},"stepLog":"11:14:18.684 [print] {\n  \"page\": 1,\n  \"per_page\": 6,\n  \"total\": 12,\n  \"total_pages\": 2,\n  \"data\": [\n    {\n      \"id\": 1,\n      \"email\": \"george.bluth@reqres.in\",\n      \"first_name\": \"George\",\n      \"last_name\": \"Bluth\",\n      \"avatar\": \"https:\/\/reqres.in\/img\/faces\/1-image.jpg\"\n    },\n    {\n      \"id\": 2,\n      \"email\": \"janet.weaver@reqres.in\",\n      \"first_name\": \"Janet\",\n      \"last_name\": \"Weaver\",\n      \"avatar\": \"https:\/\/reqres.in\/img\/faces\/2-image.jpg\"\n    },\n    {\n      \"id\": 3,\n      \"email\": \"emma.wong@reqres.in\",\n      \"first_name\": \"Emma\",\n      \"last_name\": \"Wong\",\n      \"avatar\": \"https:\/\/reqres.in\/img\/faces\/3-image.jpg\"\n    },\n    {\n      \"id\": 4,\n      \"email\": \"eve.holt@reqres.in\",\n      \"first_name\": \"Eve\",\n      \"last_name\": \"Holt\",\n      \"avatar\": \"https:\/\/reqres.in\/img\/faces\/4-image.jpg\"\n    },\n    {\n      \"id\": 5,\n      \"email\": \"charles.morris@reqres.in\",\n      \"first_name\": \"Charles\",\n      \"last_name\": \"Morris\",\n      \"avatar\": \"https:\/\/reqres.in\/img\/faces\/5-image.jpg\"\n    },\n    {\n      \"id\": 6,\n      \"email\": \"tracey.ramos@reqres.in\",\n      \"first_name\": \"Tracey\",\n      \"last_name\": \"Ramos\",\n      \"avatar\": \"https:\/\/reqres.in\/img\/faces\/6-image.jpg\"\n    }\n  ],\n  \"support\": {\n    \"url\": \"https:\/\/reqres.in\/#support-heading\",\n    \"text\": \"To keep ReqRes free, contributions towards server costs are appreciated!\"\n  }\n}\n \n"},{"result":{"nanos":3277300,"millis":3.2773,"status":"passed"},"step":{"line":43,"prefix":"*","index":8,"text":"print totalCount"},"stepLog":"11:14:18.688 [print] 6 \n"},{"result":{"nanos":1965100,"millis":1.9651,"status":"passed"},"step":{"line":44,"prefix":"*","index":9,"text":"match totalCount == jsonResponse.data.length"}}],"executorName":"main","line":34,"name":"Get users count with avatar as query","description":"","durationMillis":513.6418,"startTime":1664603058175,"failed":false,"refId":"[4:34]","endTime":1664603058690,"exampleIndex":-1},{"sectionIndex":4,"stepResults":[{"result":{"nanos":1418400,"millis":1.4184,"status":"passed"},"step":{"line":48,"prefix":"Given","index":0,"text":"url 'http:\/\/10.151.32.200:30386\/upc\/rest\/productmanager\/catalogManagement\/serviceSpecification'"}},{"result":{"nanos":0,"errorMessage":"no step-definition method match found for: form field username 'admin'\nsrc\/test\/java\/tests\/N_GET.feature:49","millis":0.0,"status":"failed"},"step":{"line":49,"prefix":"And","index":1,"text":"form field username 'admin'"},"stepLog":"11:14:18.706 src\/test\/java\/tests\/N_GET.feature:49\nAnd form field username 'admin'\nno step-definition method match found for: form field username 'admin'\nsrc\/test\/java\/tests\/N_GET.feature:49\n"},{"result":{"nanos":0,"millis":0.0,"status":"skipped"},"step":{"line":50,"prefix":"And","index":2,"text":"form field password 'sysadmin'"}},{"result":{"nanos":0,"millis":0.0,"status":"skipped"},"step":{"line":51,"prefix":"When","index":3,"text":"method GET"}},{"result":{"nanos":0,"millis":0.0,"status":"skipped"},"step":{"line":52,"prefix":"Then","index":4,"text":"status 200"}},{"result":{"nanos":0,"millis":0.0,"status":"skipped"},"step":{"line":53,"prefix":"*","index":5,"text":"print response.length"}}],"line":46,"description":"","durationMillis":1.4184,"failed":true,"error":"no step-definition method match found for: form field username 'admin'\nsrc\/test\/java\/tests\/N_GET.feature:49","executorName":"main","name":"Service Specification","startTime":1664603058703,"refId":"[5:46]","endTime":1664603058707,"exampleIndex":-1}],"callDepth":0,"name":"GET API TEST NAVEEN (Simple and with Query Param","description":"","resultDate":"2022-10-01 11:14:18 am","durationMillis":2812.8958,"passedCount":4}