{"failedCount":0,"prefixedPath":"src\/test\/java\/tests\/N_GET.feature","packageQualifiedName":"src.test.java.tests.N_GET","loopIndex":-1,"relativePath":"src\/test\/java\/tests\/N_GET.feature","scenarioResults":[{"sectionIndex":0,"stepResults":[{"result":{"nanos":66109300,"millis":66.1093,"status":"passed"},"step":{"line":4,"prefix":"Given","index":0,"text":"url 'https:\/\/reqres.in\/api\/users'"}},{"result":{"nanos":526000,"millis":0.526,"status":"passed"},"step":{"line":5,"prefix":"And","index":1,"text":"path '2'"}},{"result":{"nanos":814594500,"millis":814.5945,"status":"passed"},"step":{"line":6,"prefix":"When","index":2,"text":"method GET"},"stepLog":"19:39:22.809 request:\n1 > GET https:\/\/reqres.in\/api\/users\/2\n1 > Host: reqres.in\n1 > Connection: Keep-Alive\n1 > User-Agent: Apache-HttpClient\/4.5.13 (Java\/17.0.1)\n1 > Accept-Encoding: gzip,deflate\n\n\n19:39:23.270 response time in milliseconds: 455\n1 < 200\n1 < Date: Fri, 30 Sep 2022 14:05:06 GMT\n1 < Content-Type: application\/json; charset=utf-8\n1 < Transfer-Encoding: chunked\n1 < Connection: keep-alive\n1 < X-Powered-By: Express\n1 < Access-Control-Allow-Origin: *\n1 < Etag: W\/\"118-pbdwwFo9SKNhD3Lx5iHJyngpq00\"\n1 < Via: 1.1 vegur\n1 < Cache-Control: max-age=14400\n1 < CF-Cache-Status: HIT\n1 < Age: 6409\n1 < Report-To: {\"endpoints\":[{\"url\":\"https:\\\/\\\/a.nel.cloudflare.com\\\/report\\\/v3?s=eefIjTcgAuCbtn39FOfUNhYp%2BRUwg5Zkw0NuaCW3QHyXaFpRFKgaEoYq1J%2F8UGLfvU3xMNvotYsCuOkWPf4Wfu13%2BSDNslyZjnEo7XOf0qbv0M2cqV6V%2FIj9Rw%3D%3D\"}],\"group\":\"cf-nel\",\"max_age\":604800}\n1 < NEL: {\"success_fraction\":0,\"report_to\":\"cf-nel\",\"max_age\":604800}\n1 < Vary: Accept-Encoding\n1 < Server: cloudflare\n1 < CF-RAY: 752d82f2cd8ff37b-BOM\n{\"data\":{\"id\":2,\"email\":\"janet.weaver@reqres.in\",\"first_name\":\"Janet\",\"last_name\":\"Weaver\",\"avatar\":\"https:\/\/reqres.in\/img\/faces\/2-image.jpg\"},\"support\":{\"url\":\"https:\/\/reqres.in\/#support-heading\",\"text\":\"To keep ReqRes free, contributions towards server costs are appreciated!\"}}\n\n"},{"result":{"nanos":21800,"millis":0.0218,"status":"passed"},"step":{"line":7,"prefix":"Then","index":3,"text":"status 200"}},{"result":{"nanos":61634300,"millis":61.6343,"status":"passed"},"step":{"line":8,"prefix":"*","index":4,"text":"print response"},"stepLog":"19:39:23.380 [print] {\n  \"data\": {\n    \"id\": 2,\n    \"email\": \"janet.weaver@reqres.in\",\n    \"first_name\": \"Janet\",\n    \"last_name\": \"Weaver\",\n    \"avatar\": \"https:\/\/reqres.in\/img\/faces\/2-image.jpg\"\n  },\n  \"support\": {\n    \"url\": \"https:\/\/reqres.in\/#support-heading\",\n    \"text\": \"To keep ReqRes free, contributions towards server costs are appreciated!\"\n  }\n}\n \n"},{"result":{"nanos":10583900,"millis":10.5839,"status":"passed"},"step":{"line":9,"prefix":"*","index":5,"text":"def jsonResponse = response"}},{"result":{"nanos":864100,"millis":0.8641,"status":"passed"},"step":{"line":10,"prefix":"*","index":6,"text":"def actualName = jsonResponse.data.first_name"}},{"result":{"nanos":680900,"millis":0.6809,"status":"passed"},"step":{"line":11,"prefix":"*","index":7,"text":"print actualName"},"stepLog":"19:39:23.393 [print] Janet \n"},{"result":{"nanos":6905400,"millis":6.9054,"status":"passed"},"step":{"line":12,"prefix":"*","index":8,"text":"match actualName == jsonResponse.data.first_name"}},{"result":{"nanos":7731500,"millis":7.7315,"status":"passed"},"step":{"line":13,"prefix":"*","index":9,"text":"print \"Actual Name \"+actualName+\"Matched with Response Name \"+jsonResponse.data.first_name"},"stepLog":"19:39:23.408 [print] Actual Name JanetMatched with Response Name Janet \n"}],"executorName":"main","line":3,"name":"GET user details with API","description":"","durationMillis":969.6517,"startTime":1664546962423,"failed":false,"refId":"[1:3]","endTime":1664546963408,"exampleIndex":-1},{"sectionIndex":1,"stepResults":[{"result":{"nanos":12884000,"millis":12.884,"status":"passed"},"step":{"line":16,"prefix":"*","index":0,"text":"def query = {id:'7'}"}},{"result":{"nanos":464600,"millis":0.4646,"status":"passed"},"step":{"line":17,"prefix":"Given","index":1,"text":"url 'https:\/\/reqres.in\/api\/users'"}},{"result":{"nanos":1881800,"millis":1.8818,"status":"passed"},"step":{"line":18,"prefix":"And","index":2,"text":"params query"}},{"result":{"nanos":72320300,"millis":72.3203,"status":"passed"},"step":{"line":19,"prefix":"When","index":3,"text":"method GET"},"stepLog":"19:39:23.430 request:\n1 > GET https:\/\/reqres.in\/api\/users?id=7\n1 > Host: reqres.in\n1 > Connection: Keep-Alive\n1 > User-Agent: Apache-HttpClient\/4.5.13 (Java\/17.0.1)\n1 > Accept-Encoding: gzip,deflate\n\n\n19:39:23.499 response time in milliseconds: 69\n1 < 200\n1 < Date: Fri, 30 Sep 2022 14:05:06 GMT\n1 < Content-Type: application\/json; charset=utf-8\n1 < Transfer-Encoding: chunked\n1 < Connection: keep-alive\n1 < X-Powered-By: Express\n1 < Access-Control-Allow-Origin: *\n1 < Etag: W\/\"11c-Esb3aX7LcoAMUKcF3i6bvWwxqls\"\n1 < Via: 1.1 vegur\n1 < Cache-Control: max-age=14400\n1 < CF-Cache-Status: HIT\n1 < Age: 655\n1 < Report-To: {\"endpoints\":[{\"url\":\"https:\\\/\\\/a.nel.cloudflare.com\\\/report\\\/v3?s=wa46TEuCXny16jYMuC0osL8AEKa5uamBxcmbkgTyvuG%2F%2BOm9DXxs8f7Hoyb0OmlHlR3ox79x7P7rrxhY9Iom8%2B%2F%2FvEoCauXA33J3MT7EOuPr3s7tkylpNvprzA%3D%3D\"}],\"group\":\"cf-nel\",\"max_age\":604800}\n1 < NEL: {\"success_fraction\":0,\"report_to\":\"cf-nel\",\"max_age\":604800}\n1 < Vary: Accept-Encoding\n1 < Server: cloudflare\n1 < CF-RAY: 752d82f45982f367-BOM\n{\"data\":{\"id\":7,\"email\":\"michael.lawson@reqres.in\",\"first_name\":\"Michael\",\"last_name\":\"Lawson\",\"avatar\":\"https:\/\/reqres.in\/img\/faces\/7-image.jpg\"},\"support\":{\"url\":\"https:\/\/reqres.in\/#support-heading\",\"text\":\"To keep ReqRes free, contributions towards server costs are appreciated!\"}}\n\n"},{"result":{"nanos":15400,"millis":0.0154,"status":"passed"},"step":{"line":20,"prefix":"Then","index":4,"text":"status 200"}},{"result":{"nanos":1011500,"millis":1.0115,"status":"passed"},"step":{"line":21,"prefix":"*","index":5,"text":"print response"},"stepLog":"19:39:23.501 [print] {\n  \"data\": {\n    \"id\": 7,\n    \"email\": \"michael.lawson@reqres.in\",\n    \"first_name\": \"Michael\",\n    \"last_name\": \"Lawson\",\n    \"avatar\": \"https:\/\/reqres.in\/img\/faces\/7-image.jpg\"\n  },\n  \"support\": {\n    \"url\": \"https:\/\/reqres.in\/#support-heading\",\n    \"text\": \"To keep ReqRes free, contributions towards server costs are appreciated!\"\n  }\n}\n \n"}],"executorName":"main","line":15,"name":"Get users with specific first name","description":"","durationMillis":88.5776,"startTime":1664546963412,"failed":false,"refId":"[2:15]","endTime":1664546963501,"exampleIndex":-1},{"sectionIndex":2,"stepResults":[{"result":{"nanos":596700,"millis":0.5967,"status":"passed"},"step":{"line":24,"prefix":"*","index":0,"text":"def query = {id:'1' , avatar:'https:\/\/reqres.in\/img\/faces\/1-image.jpg'}"}},{"result":{"nanos":282100,"millis":0.2821,"status":"passed"},"step":{"line":25,"prefix":"Given","index":1,"text":"url 'https:\/\/reqres.in\/api\/users'"}},{"result":{"nanos":428400,"millis":0.4284,"status":"passed"},"step":{"line":26,"prefix":"And","index":2,"text":"params query"}},{"result":{"nanos":66349500,"millis":66.3495,"status":"passed"},"step":{"line":27,"prefix":"When","index":3,"text":"method GET"},"stepLog":"19:39:23.512 request:\n1 > GET https:\/\/reqres.in\/api\/users?id=1&avatar=https%3A%2F%2Freqres.in%2Fimg%2Ffaces%2F1-image.jpg\n1 > Host: reqres.in\n1 > Connection: Keep-Alive\n1 > User-Agent: Apache-HttpClient\/4.5.13 (Java\/17.0.1)\n1 > Accept-Encoding: gzip,deflate\n\n\n19:39:23.575 response time in milliseconds: 63\n1 < 200\n1 < Date: Fri, 30 Sep 2022 14:05:06 GMT\n1 < Content-Type: application\/json; charset=utf-8\n1 < Transfer-Encoding: chunked\n1 < Connection: keep-alive\n1 < X-Powered-By: Express\n1 < Access-Control-Allow-Origin: *\n1 < Etag: W\/\"118-P3iKcVpIgCj9HqYeOOrGLX8qJVc\"\n1 < Via: 1.1 vegur\n1 < Cache-Control: max-age=14400\n1 < CF-Cache-Status: HIT\n1 < Age: 230\n1 < Report-To: {\"endpoints\":[{\"url\":\"https:\\\/\\\/a.nel.cloudflare.com\\\/report\\\/v3?s=8SemgAR0MMBp7%2FYrvqthJbCX24022fW2Qt%2Fj8Y8XtZv7B1xnm9Flm9k0a3zit68qwyEt2XV39k4HpF3ilMhK9mQz0BKSLyD1wOsqmg81iuAtkKx66gFDnsdtzQ%3D%3D\"}],\"group\":\"cf-nel\",\"max_age\":604800}\n1 < NEL: {\"success_fraction\":0,\"report_to\":\"cf-nel\",\"max_age\":604800}\n1 < Vary: Accept-Encoding\n1 < Server: cloudflare\n1 < CF-RAY: 752d82f4cd1cf435-BOM\n{\"data\":{\"id\":1,\"email\":\"george.bluth@reqres.in\",\"first_name\":\"George\",\"last_name\":\"Bluth\",\"avatar\":\"https:\/\/reqres.in\/img\/faces\/1-image.jpg\"},\"support\":{\"url\":\"https:\/\/reqres.in\/#support-heading\",\"text\":\"To keep ReqRes free, contributions towards server costs are appreciated!\"}}\n\n"},{"result":{"nanos":13500,"millis":0.0135,"status":"passed"},"step":{"line":28,"prefix":"Then","index":4,"text":"status 200"}},{"result":{"nanos":869000,"millis":0.869,"status":"passed"},"step":{"line":29,"prefix":"*","index":5,"text":"print response"},"stepLog":"19:39:23.577 [print] {\n  \"data\": {\n    \"id\": 1,\n    \"email\": \"george.bluth@reqres.in\",\n    \"first_name\": \"George\",\n    \"last_name\": \"Bluth\",\n    \"avatar\": \"https:\/\/reqres.in\/img\/faces\/1-image.jpg\"\n  },\n  \"support\": {\n    \"url\": \"https:\/\/reqres.in\/#support-heading\",\n    \"text\": \"To keep ReqRes free, contributions towards server costs are appreciated!\"\n  }\n}\n \n"}],"executorName":"main","line":23,"name":"Get users with specific multiple query parameter","description":"","durationMillis":68.5392,"startTime":1664546963507,"failed":false,"refId":"[3:23]","endTime":1664546963577,"exampleIndex":-1},{"sectionIndex":3,"stepResults":[{"result":{"nanos":487500,"millis":0.4875,"status":"passed"},"step":{"line":32,"prefix":"*","index":0,"text":"def query = {avatar:'https:\/\/reqres.in\/img\/faces\/1-image.jpg'}"}},{"result":{"nanos":355200,"millis":0.3552,"status":"passed"},"step":{"line":33,"prefix":"Given","index":1,"text":"url 'https:\/\/reqres.in\/api\/users'"}},{"result":{"nanos":247400,"millis":0.2474,"status":"passed"},"step":{"line":34,"prefix":"And","index":2,"text":"params query"}},{"result":{"nanos":559238400,"millis":559.2384,"status":"passed"},"step":{"line":35,"prefix":"When","index":3,"text":"method GET"},"stepLog":"19:39:23.587 request:\n1 > GET https:\/\/reqres.in\/api\/users?avatar=https%3A%2F%2Freqres.in%2Fimg%2Ffaces%2F1-image.jpg\n1 > Host: reqres.in\n1 > Connection: Keep-Alive\n1 > User-Agent: Apache-HttpClient\/4.5.13 (Java\/17.0.1)\n1 > Accept-Encoding: gzip,deflate\n\n\n19:39:24.141 response time in milliseconds: 553\n1 < 200\n1 < Date: Fri, 30 Sep 2022 14:05:07 GMT\n1 < Content-Type: application\/json; charset=utf-8\n1 < Transfer-Encoding: chunked\n1 < Connection: keep-alive\n1 < X-Powered-By: Express\n1 < Access-Control-Allow-Origin: *\n1 < Etag: W\/\"3e4-2RLXvr5wTg9YQ6aH95CkYoFNuO8\"\n1 < Via: 1.1 vegur\n1 < Cache-Control: max-age=14400\n1 < CF-Cache-Status: MISS\n1 < Report-To: {\"endpoints\":[{\"url\":\"https:\\\/\\\/a.nel.cloudflare.com\\\/report\\\/v3?s=GBklyX9YqDhedS7laiaexCXdGdfJem06cpR5wWLx%2Bwoen6cwq9Qmklyh%2FJ9uceRnVg1xPsIUcswH%2Fh8yt31p4xiBLD%2B6AXDg6EcNf8vz%2B7R6jSc5WHuKPsxbkw%3D%3D\"}],\"group\":\"cf-nel\",\"max_age\":604800}\n1 < NEL: {\"success_fraction\":0,\"report_to\":\"cf-nel\",\"max_age\":604800}\n1 < Vary: Accept-Encoding\n1 < Server: cloudflare\n1 < CF-RAY: 752d82f56e2f31d0-BOM\n{\"page\":1,\"per_page\":6,\"total\":12,\"total_pages\":2,\"data\":[{\"id\":1,\"email\":\"george.bluth@reqres.in\",\"first_name\":\"George\",\"last_name\":\"Bluth\",\"avatar\":\"https:\/\/reqres.in\/img\/faces\/1-image.jpg\"},{\"id\":2,\"email\":\"janet.weaver@reqres.in\",\"first_name\":\"Janet\",\"last_name\":\"Weaver\",\"avatar\":\"https:\/\/reqres.in\/img\/faces\/2-image.jpg\"},{\"id\":3,\"email\":\"emma.wong@reqres.in\",\"first_name\":\"Emma\",\"last_name\":\"Wong\",\"avatar\":\"https:\/\/reqres.in\/img\/faces\/3-image.jpg\"},{\"id\":4,\"email\":\"eve.holt@reqres.in\",\"first_name\":\"Eve\",\"last_name\":\"Holt\",\"avatar\":\"https:\/\/reqres.in\/img\/faces\/4-image.jpg\"},{\"id\":5,\"email\":\"charles.morris@reqres.in\",\"first_name\":\"Charles\",\"last_name\":\"Morris\",\"avatar\":\"https:\/\/reqres.in\/img\/faces\/5-image.jpg\"},{\"id\":6,\"email\":\"tracey.ramos@reqres.in\",\"first_name\":\"Tracey\",\"last_name\":\"Ramos\",\"avatar\":\"https:\/\/reqres.in\/img\/faces\/6-image.jpg\"}],\"support\":{\"url\":\"https:\/\/reqres.in\/#support-heading\",\"text\":\"To keep ReqRes free, contributions towards server costs are appreciated!\"}}\n\n"},{"result":{"nanos":34100,"millis":0.0341,"status":"passed"},"step":{"line":36,"prefix":"Then","index":4,"text":"status 200"}},{"result":{"nanos":729000,"millis":0.729,"status":"passed"},"step":{"line":37,"prefix":"*","index":5,"text":"def jsonResponse = response"}},{"result":{"nanos":9948100,"millis":9.9481,"status":"passed"},"step":{"line":38,"prefix":"*","index":6,"text":"def totalCount = jsonResponse.data.length"}},{"result":{"nanos":2988300,"millis":2.9883,"status":"passed"},"step":{"line":39,"prefix":"*","index":7,"text":"print response"},"stepLog":"19:39:24.158 [print] {\n  \"page\": 1,\n  \"per_page\": 6,\n  \"total\": 12,\n  \"total_pages\": 2,\n  \"data\": [\n    {\n      \"id\": 1,\n      \"email\": \"george.bluth@reqres.in\",\n      \"first_name\": \"George\",\n      \"last_name\": \"Bluth\",\n      \"avatar\": \"https:\/\/reqres.in\/img\/faces\/1-image.jpg\"\n    },\n    {\n      \"id\": 2,\n      \"email\": \"janet.weaver@reqres.in\",\n      \"first_name\": \"Janet\",\n      \"last_name\": \"Weaver\",\n      \"avatar\": \"https:\/\/reqres.in\/img\/faces\/2-image.jpg\"\n    },\n    {\n      \"id\": 3,\n      \"email\": \"emma.wong@reqres.in\",\n      \"first_name\": \"Emma\",\n      \"last_name\": \"Wong\",\n      \"avatar\": \"https:\/\/reqres.in\/img\/faces\/3-image.jpg\"\n    },\n    {\n      \"id\": 4,\n      \"email\": \"eve.holt@reqres.in\",\n      \"first_name\": \"Eve\",\n      \"last_name\": \"Holt\",\n      \"avatar\": \"https:\/\/reqres.in\/img\/faces\/4-image.jpg\"\n    },\n    {\n      \"id\": 5,\n      \"email\": \"charles.morris@reqres.in\",\n      \"first_name\": \"Charles\",\n      \"last_name\": \"Morris\",\n      \"avatar\": \"https:\/\/reqres.in\/img\/faces\/5-image.jpg\"\n    },\n    {\n      \"id\": 6,\n      \"email\": \"tracey.ramos@reqres.in\",\n      \"first_name\": \"Tracey\",\n      \"last_name\": \"Ramos\",\n      \"avatar\": \"https:\/\/reqres.in\/img\/faces\/6-image.jpg\"\n    }\n  ],\n  \"support\": {\n    \"url\": \"https:\/\/reqres.in\/#support-heading\",\n    \"text\": \"To keep ReqRes free, contributions towards server costs are appreciated!\"\n  }\n}\n \n"},{"result":{"nanos":3775300,"millis":3.7753,"status":"passed"},"step":{"line":40,"prefix":"*","index":8,"text":"print totalCount"},"stepLog":"19:39:24.161 [print] 6 \n"},{"result":{"nanos":2078100,"millis":2.0781,"status":"passed"},"step":{"line":41,"prefix":"*","index":9,"text":"match totalCount == jsonResponse.data.length"}}],"executorName":"main","line":31,"name":"Get users count with avatar as query","description":"","durationMillis":579.8814,"startTime":1664546963582,"failed":false,"refId":"[4:31]","endTime":1664546964164,"exampleIndex":-1}],"callDepth":0,"name":"GET API TEST NAVEEN (Simple and with Query Param","description":"","resultDate":"2022-09-30 07:39:24 pm","durationMillis":1706.6499,"passedCount":4}