{"failedCount":0,"prefixedPath":"src\/test\/java\/tests\/N_GET.feature","packageQualifiedName":"src.test.java.tests.N_GET","loopIndex":-1,"relativePath":"src\/test\/java\/tests\/N_GET.feature","scenarioResults":[{"sectionIndex":0,"stepResults":[{"result":{"nanos":57296700,"millis":57.2967,"status":"passed"},"step":{"line":4,"prefix":"Given","index":0,"text":"url 'https:\/\/reqres.in\/api\/users'"}},{"result":{"nanos":481500,"millis":0.4815,"status":"passed"},"step":{"line":5,"prefix":"And","index":1,"text":"path '2'"}},{"result":{"nanos":742647700,"millis":742.6477,"status":"passed"},"step":{"line":6,"prefix":"When","index":2,"text":"method GET"},"stepLog":"19:33:55.692 request:\n1 > GET https:\/\/reqres.in\/api\/users\/2\n1 > Host: reqres.in\n1 > Connection: Keep-Alive\n1 > User-Agent: Apache-HttpClient\/4.5.13 (Java\/17.0.1)\n1 > Accept-Encoding: gzip,deflate\n\n\n19:33:56.100 response time in milliseconds: 404\n1 < 200\n1 < Date: Fri, 30 Sep 2022 13:59:39 GMT\n1 < Content-Type: application\/json; charset=utf-8\n1 < Transfer-Encoding: chunked\n1 < Connection: keep-alive\n1 < X-Powered-By: Express\n1 < Access-Control-Allow-Origin: *\n1 < Etag: W\/\"118-pbdwwFo9SKNhD3Lx5iHJyngpq00\"\n1 < Via: 1.1 vegur\n1 < Cache-Control: max-age=14400\n1 < CF-Cache-Status: HIT\n1 < Age: 888\n1 < Report-To: {\"endpoints\":[{\"url\":\"https:\\\/\\\/a.nel.cloudflare.com\\\/report\\\/v3?s=HMwx%2F6B912goli9b%2Bo9UBzSwNARVFGN7Pthint%2Fl19wVY%2BqIBbQFxjTv%2Fx43sooxelc3gCOJqtIAlT%2FvtnxnZHtAphz0FX1e1aT51uYj1G1wXz7NCnFkm1a7Ww%3D%3D\"}],\"group\":\"cf-nel\",\"max_age\":604800}\n1 < NEL: {\"success_fraction\":0,\"report_to\":\"cf-nel\",\"max_age\":604800}\n1 < Vary: Accept-Encoding\n1 < Server: cloudflare\n1 < CF-RAY: 752d7af60c7d3200-BOM\n{\"data\":{\"id\":2,\"email\":\"janet.weaver@reqres.in\",\"first_name\":\"Janet\",\"last_name\":\"Weaver\",\"avatar\":\"https:\/\/reqres.in\/img\/faces\/2-image.jpg\"},\"support\":{\"url\":\"https:\/\/reqres.in\/#support-heading\",\"text\":\"To keep ReqRes free, contributions towards server costs are appreciated!\"}}\n\n"},{"result":{"nanos":38700,"millis":0.0387,"status":"passed"},"step":{"line":7,"prefix":"Then","index":3,"text":"status 200"}},{"result":{"nanos":90968100,"millis":90.9681,"status":"passed"},"step":{"line":8,"prefix":"*","index":4,"text":"print response"},"stepLog":"19:33:56.234 [print] {\n  \"data\": {\n    \"id\": 2,\n    \"email\": \"janet.weaver@reqres.in\",\n    \"first_name\": \"Janet\",\n    \"last_name\": \"Weaver\",\n    \"avatar\": \"https:\/\/reqres.in\/img\/faces\/2-image.jpg\"\n  },\n  \"support\": {\n    \"url\": \"https:\/\/reqres.in\/#support-heading\",\n    \"text\": \"To keep ReqRes free, contributions towards server costs are appreciated!\"\n  }\n}\n \n"},{"result":{"nanos":9872700,"millis":9.8727,"status":"passed"},"step":{"line":9,"prefix":"*","index":5,"text":"def jsonResponse = response"}},{"result":{"nanos":818400,"millis":0.8184,"status":"passed"},"step":{"line":10,"prefix":"*","index":6,"text":"def actualName = jsonResponse.data.first_name"}},{"result":{"nanos":680000,"millis":0.68,"status":"passed"},"step":{"line":11,"prefix":"*","index":7,"text":"print actualName"},"stepLog":"19:33:56.247 [print] Janet \n"},{"result":{"nanos":8168000,"millis":8.168,"status":"passed"},"step":{"line":12,"prefix":"*","index":8,"text":"match actualName == jsonResponse.data.first_name"}},{"result":{"nanos":7971600,"millis":7.9716,"status":"passed"},"step":{"line":13,"prefix":"*","index":9,"text":"print \"Actual Name \"+actualName+\"Matched with Response Name \"+jsonResponse.data.first_name"},"stepLog":"19:33:56.264 [print] Actual Name JanetMatched with Response Name Janet \n"}],"executorName":"main","line":3,"name":"GET user details with API","description":"","durationMillis":918.9434,"startTime":1664546635332,"failed":false,"refId":"[1:3]","endTime":1664546636264,"exampleIndex":-1},{"sectionIndex":1,"stepResults":[{"result":{"nanos":13538300,"millis":13.5383,"status":"passed"},"step":{"line":16,"prefix":"*","index":0,"text":"def query = {id:'7'}"}},{"result":{"nanos":480500,"millis":0.4805,"status":"passed"},"step":{"line":17,"prefix":"Given","index":1,"text":"url 'https:\/\/reqres.in\/api\/users'"}},{"result":{"nanos":1169800,"millis":1.1698,"status":"passed"},"step":{"line":18,"prefix":"And","index":2,"text":"params query"}},{"result":{"nanos":78157200,"millis":78.1572,"status":"passed"},"step":{"line":19,"prefix":"When","index":3,"text":"method GET"},"stepLog":"19:33:56.285 request:\n1 > GET https:\/\/reqres.in\/api\/users?id=7\n1 > Host: reqres.in\n1 > Connection: Keep-Alive\n1 > User-Agent: Apache-HttpClient\/4.5.13 (Java\/17.0.1)\n1 > Accept-Encoding: gzip,deflate\n\n\n19:33:56.360 response time in milliseconds: 75\n1 < 200\n1 < Date: Fri, 30 Sep 2022 13:59:39 GMT\n1 < Content-Type: application\/json; charset=utf-8\n1 < Transfer-Encoding: chunked\n1 < Connection: keep-alive\n1 < X-Powered-By: Express\n1 < Access-Control-Allow-Origin: *\n1 < Etag: W\/\"11c-Esb3aX7LcoAMUKcF3i6bvWwxqls\"\n1 < Via: 1.1 vegur\n1 < Cache-Control: max-age=14400\n1 < CF-Cache-Status: HIT\n1 < Age: 33\n1 < Report-To: {\"endpoints\":[{\"url\":\"https:\\\/\\\/a.nel.cloudflare.com\\\/report\\\/v3?s=w%2F%2FPUPM3pX30HGxxXMH1VplfwC9%2FTsTkUXxWeTnh8eyXgF1U%2FcbcgrgJIng8Z1EsY%2B1UYuSrK6fHCCIRrP2U25gAxLohVcVq7eUfN7wARg0%2B2p66zo0fpl9vpQ%3D%3D\"}],\"group\":\"cf-nel\",\"max_age\":604800}\n1 < NEL: {\"success_fraction\":0,\"report_to\":\"cf-nel\",\"max_age\":604800}\n1 < Vary: Accept-Encoding\n1 < Server: cloudflare\n1 < CF-RAY: 752d7af7cc86318e-BOM\n{\"data\":{\"id\":7,\"email\":\"michael.lawson@reqres.in\",\"first_name\":\"Michael\",\"last_name\":\"Lawson\",\"avatar\":\"https:\/\/reqres.in\/img\/faces\/7-image.jpg\"},\"support\":{\"url\":\"https:\/\/reqres.in\/#support-heading\",\"text\":\"To keep ReqRes free, contributions towards server costs are appreciated!\"}}\n\n"},{"result":{"nanos":15400,"millis":0.0154,"status":"passed"},"step":{"line":20,"prefix":"Then","index":4,"text":"status 200"}},{"result":{"nanos":877000,"millis":0.877,"status":"passed"},"step":{"line":21,"prefix":"*","index":5,"text":"print response"},"stepLog":"19:33:56.362 [print] {\n  \"data\": {\n    \"id\": 7,\n    \"email\": \"michael.lawson@reqres.in\",\n    \"first_name\": \"Michael\",\n    \"last_name\": \"Lawson\",\n    \"avatar\": \"https:\/\/reqres.in\/img\/faces\/7-image.jpg\"\n  },\n  \"support\": {\n    \"url\": \"https:\/\/reqres.in\/#support-heading\",\n    \"text\": \"To keep ReqRes free, contributions towards server costs are appreciated!\"\n  }\n}\n \n"}],"executorName":"main","line":15,"name":"Get users with specific first name","description":"","durationMillis":94.2382,"startTime":1664546636268,"failed":false,"refId":"[2:15]","endTime":1664546636362,"exampleIndex":-1},{"sectionIndex":2,"stepResults":[{"result":{"nanos":509500,"millis":0.5095,"status":"passed"},"step":{"line":24,"prefix":"*","index":0,"text":"def query = {url:'https:\/\/reqres.in\/#support-heading'}"}},{"result":{"nanos":221600,"millis":0.2216,"status":"passed"},"step":{"line":25,"prefix":"Given","index":1,"text":"url 'https:\/\/reqres.in\/api\/users'"}},{"result":{"nanos":326800,"millis":0.3268,"status":"passed"},"step":{"line":26,"prefix":"And","index":2,"text":"params query"}},{"result":{"nanos":462147800,"millis":462.1478,"status":"passed"},"step":{"line":27,"prefix":"When","index":3,"text":"method GET"},"stepLog":"19:33:56.372 request:\n1 > GET https:\/\/reqres.in\/api\/users?url=https%3A%2F%2Freqres.in%2F%23support-heading\n1 > Host: reqres.in\n1 > Connection: Keep-Alive\n1 > User-Agent: Apache-HttpClient\/4.5.13 (Java\/17.0.1)\n1 > Accept-Encoding: gzip,deflate\n\n\n19:33:56.830 response time in milliseconds: 458\n1 < 200\n1 < Date: Fri, 30 Sep 2022 13:59:39 GMT\n1 < Content-Type: application\/json; charset=utf-8\n1 < Transfer-Encoding: chunked\n1 < Connection: keep-alive\n1 < X-Powered-By: Express\n1 < Access-Control-Allow-Origin: *\n1 < Etag: W\/\"3e4-2RLXvr5wTg9YQ6aH95CkYoFNuO8\"\n1 < Via: 1.1 vegur\n1 < Cache-Control: max-age=14400\n1 < CF-Cache-Status: MISS\n1 < Report-To: {\"endpoints\":[{\"url\":\"https:\\\/\\\/a.nel.cloudflare.com\\\/report\\\/v3?s=QnQlaDT47tAw8SS2XNFr4BnjaadRPd4s97LezdQG2dajoRZCnXk2IWKX3Uy2uX3NQdmYX7EVjRtU0ozpdFz%2Biiqe%2BjTMMYevwglwGxM8SVcTQ3YVox%2FfGDoSoQ%3D%3D\"}],\"group\":\"cf-nel\",\"max_age\":604800}\n1 < NEL: {\"success_fraction\":0,\"report_to\":\"cf-nel\",\"max_age\":604800}\n1 < Vary: Accept-Encoding\n1 < Server: cloudflare\n1 < CF-RAY: 752d7af82e0ef4ca-BOM\n{\"page\":1,\"per_page\":6,\"total\":12,\"total_pages\":2,\"data\":[{\"id\":1,\"email\":\"george.bluth@reqres.in\",\"first_name\":\"George\",\"last_name\":\"Bluth\",\"avatar\":\"https:\/\/reqres.in\/img\/faces\/1-image.jpg\"},{\"id\":2,\"email\":\"janet.weaver@reqres.in\",\"first_name\":\"Janet\",\"last_name\":\"Weaver\",\"avatar\":\"https:\/\/reqres.in\/img\/faces\/2-image.jpg\"},{\"id\":3,\"email\":\"emma.wong@reqres.in\",\"first_name\":\"Emma\",\"last_name\":\"Wong\",\"avatar\":\"https:\/\/reqres.in\/img\/faces\/3-image.jpg\"},{\"id\":4,\"email\":\"eve.holt@reqres.in\",\"first_name\":\"Eve\",\"last_name\":\"Holt\",\"avatar\":\"https:\/\/reqres.in\/img\/faces\/4-image.jpg\"},{\"id\":5,\"email\":\"charles.morris@reqres.in\",\"first_name\":\"Charles\",\"last_name\":\"Morris\",\"avatar\":\"https:\/\/reqres.in\/img\/faces\/5-image.jpg\"},{\"id\":6,\"email\":\"tracey.ramos@reqres.in\",\"first_name\":\"Tracey\",\"last_name\":\"Ramos\",\"avatar\":\"https:\/\/reqres.in\/img\/faces\/6-image.jpg\"}],\"support\":{\"url\":\"https:\/\/reqres.in\/#support-heading\",\"text\":\"To keep ReqRes free, contributions towards server costs are appreciated!\"}}\n\n"},{"result":{"nanos":27200,"millis":0.0272,"status":"passed"},"step":{"line":28,"prefix":"Then","index":4,"text":"status 200"}},{"result":{"nanos":2240700,"millis":2.2407,"status":"passed"},"step":{"line":29,"prefix":"*","index":5,"text":"print response"},"stepLog":"19:33:56.835 [print] {\n  \"page\": 1,\n  \"per_page\": 6,\n  \"total\": 12,\n  \"total_pages\": 2,\n  \"data\": [\n    {\n      \"id\": 1,\n      \"email\": \"george.bluth@reqres.in\",\n      \"first_name\": \"George\",\n      \"last_name\": \"Bluth\",\n      \"avatar\": \"https:\/\/reqres.in\/img\/faces\/1-image.jpg\"\n    },\n    {\n      \"id\": 2,\n      \"email\": \"janet.weaver@reqres.in\",\n      \"first_name\": \"Janet\",\n      \"last_name\": \"Weaver\",\n      \"avatar\": \"https:\/\/reqres.in\/img\/faces\/2-image.jpg\"\n    },\n    {\n      \"id\": 3,\n      \"email\": \"emma.wong@reqres.in\",\n      \"first_name\": \"Emma\",\n      \"last_name\": \"Wong\",\n      \"avatar\": \"https:\/\/reqres.in\/img\/faces\/3-image.jpg\"\n    },\n    {\n      \"id\": 4,\n      \"email\": \"eve.holt@reqres.in\",\n      \"first_name\": \"Eve\",\n      \"last_name\": \"Holt\",\n      \"avatar\": \"https:\/\/reqres.in\/img\/faces\/4-image.jpg\"\n    },\n    {\n      \"id\": 5,\n      \"email\": \"charles.morris@reqres.in\",\n      \"first_name\": \"Charles\",\n      \"last_name\": \"Morris\",\n      \"avatar\": \"https:\/\/reqres.in\/img\/faces\/5-image.jpg\"\n    },\n    {\n      \"id\": 6,\n      \"email\": \"tracey.ramos@reqres.in\",\n      \"first_name\": \"Tracey\",\n      \"last_name\": \"Ramos\",\n      \"avatar\": \"https:\/\/reqres.in\/img\/faces\/6-image.jpg\"\n    }\n  ],\n  \"support\": {\n    \"url\": \"https:\/\/reqres.in\/#support-heading\",\n    \"text\": \"To keep ReqRes free, contributions towards server costs are appreciated!\"\n  }\n}\n \n"}],"executorName":"main","line":23,"name":"Get users with specific multiple query parameter","description":"","durationMillis":465.4736,"startTime":1664546636368,"failed":false,"refId":"[3:23]","endTime":1664546636835,"exampleIndex":-1}],"callDepth":0,"name":"GET API TEST NAVEEN (Simple and with Query Param","description":"","resultDate":"2022-09-30 07:33:56 pm","durationMillis":1478.6552,"passedCount":3}